%!PS-Adobe-3.0 EPSF-3.0
%%Creator: cairo 1.16.0 (https://cairographics.org)
%%CreationDate: Tue Oct 20 13:20:27 2020
%%Pages: 1
%%DocumentData: Clean7Bit
%%LanguageLevel: 2
%%BoundingBox: 0 0 384 384
%%EndComments
%%BeginProlog
50 dict begin
/q { gsave } bind def
/Q { grestore } bind def
/cm { 6 array astore concat } bind def
/w { setlinewidth } bind def
/J { setlinecap } bind def
/j { setlinejoin } bind def
/M { setmiterlimit } bind def
/d { setdash } bind def
/m { moveto } bind def
/l { lineto } bind def
/c { curveto } bind def
/h { closepath } bind def
/re { exch dup neg 3 1 roll 5 3 roll moveto 0 rlineto
      0 exch rlineto 0 rlineto closepath } bind def
/S { stroke } bind def
/f { fill } bind def
/f* { eofill } bind def
/n { newpath } bind def
/W { clip } bind def
/W* { eoclip } bind def
/BT { } bind def
/ET { } bind def
/BDC { mark 3 1 roll /BDC pdfmark } bind def
/EMC { mark /EMC pdfmark } bind def
/cairo_store_point { /cairo_point_y exch def /cairo_point_x exch def } def
/Tj { show currentpoint cairo_store_point } bind def
/TJ {
  {
    dup
    type /stringtype eq
    { show } { -0.001 mul 0 cairo_font_matrix dtransform rmoveto } ifelse
  } forall
  currentpoint cairo_store_point
} bind def
/cairo_selectfont { cairo_font_matrix aload pop pop pop 0 0 6 array astore
    cairo_font exch selectfont cairo_point_x cairo_point_y moveto } bind def
/Tf { pop /cairo_font exch def /cairo_font_matrix where
      { pop cairo_selectfont } if } bind def
/Td { matrix translate cairo_font_matrix matrix concatmatrix dup
      /cairo_font_matrix exch def dup 4 get exch 5 get cairo_store_point
      /cairo_font where { pop cairo_selectfont } if } bind def
/Tm { 2 copy 8 2 roll 6 array astore /cairo_font_matrix exch def
      cairo_store_point /cairo_font where { pop cairo_selectfont } if } bind def
/g { setgray } bind def
/rg { setrgbcolor } bind def
/d1 { setcachedevice } bind def
/cairo_data_source {
  CairoDataIndex CairoData length lt
    { CairoData CairoDataIndex get /CairoDataIndex CairoDataIndex 1 add def }
    { () } ifelse
} def
/cairo_flush_ascii85_file { cairo_ascii85_file status { cairo_ascii85_file flushfile } if } def
/cairo_image { image cairo_flush_ascii85_file } def
/cairo_imagemask { imagemask cairo_flush_ascii85_file } def
%%EndProlog
%%BeginSetup
%%EndSetup
%%Page: 1 1
%%BeginPageSetup
%%PageBoundingBox: 0 0 384 384
%%EndPageSetup
q 0 0 384 384 rectclip
1 0 0 -1 0 384 cm q
1 0.678431 0.517647 rg
334.992 271.188 m 249.949 244.926 l 360.82 384 l 378.207 384 l 381.406 
384 384 381.406 384 378.207 c 384 337.641 l 384 306.387 363.375 279.945 
334.992 271.188 c h
334.992 271.188 m f
1 0.831373 0.631373 rg
320.289 271.188 m 249.949 244.926 l 249.949 207.582 l 134.051 207.582 l
 134.051 244.926 l 49.008 271.188 l 20.625 279.945 0 306.387 0 337.641 c
 0 378.207 l 0 381.406 2.594 384 5.793 384 c 57.949 384 l 69.539 360.82 
l 81.125 384 l 302.875 384 l 314.461 360.82 l 326.051 384 l 360.82 384 l
 360.82 337.641 l 360.82 306.387 343.762 279.945 320.289 271.188 c h
320.289 271.188 m f
1 0.678431 0.517647 rg
314.461 349.23 m 308.062 349.23 302.875 354.422 302.875 360.82 c 302.875
 384 l 326.051 384 l 326.051 360.82 l 326.051 354.422 320.863 349.23 314.461
 349.23 c h
314.461 349.23 m f
69.539 349.23 m 63.137 349.23 57.949 354.422 57.949 360.82 c 57.949 384
 l 81.125 384 l 81.125 360.82 l 81.125 354.422 75.938 349.23 69.539 349.23
 c h
69.539 349.23 m f
0.996078 0.521569 0.4 rg
249.949 207.582 m 249.949 81.125 l 134.051 81.125 l 134.051 207.582 l 151.695
 215.68 171.316 220.203 192 220.203 c 212.684 220.203 232.305 215.68 249.949
 207.582 c h
249.949 207.582 m f
0.996078 0.368627 0.286275 rg
93.488 23.18 m 77.488 23.18 64.516 36.152 64.516 52.152 c 64.516 68.156
 77.488 81.125 93.488 81.125 c 192 81.125 l 192 23.18 l h
93.488 23.18 m f
1 0.227451 0.2 rg
290.512 23.18 m 192 23.18 l 192 81.125 l 290.512 81.125 l 306.512 81.125
 319.484 68.156 319.484 52.152 c 319.484 36.152 306.512 23.18 290.512 23.18
 c h
290.512 23.18 m f
0.996078 0.368627 0.286275 rg
261.539 0 m 192 173.844 l 243.207 173.844 284.715 132.332 284.715 81.125
 c 284.715 5.793 l 284.715 2.594 282.121 0 278.922 0 c h
261.539 0 m f
0.996078 0.521569 0.4 rg
261.539 81.125 m 261.539 0 l 105.078 0 l 101.879 0 99.285 2.594 99.285 
5.793 c 99.285 81.125 l 99.285 132.332 140.793 173.844 192 173.844 c 230.406
 173.844 261.539 132.332 261.539 81.125 c h
261.539 81.125 m f
0.709804 0.219608 0.25098 rg
192 34.77 m 172.797 34.77 157.23 50.336 157.23 69.539 c 157.234 93.195 
l 157.281 96.551 158.375 99.535 160.152 101.941 c 223.848 101.941 l 225.625
 99.535 226.719 96.551 226.766 93.195 c 226.77 69.539 l 226.77 50.336 211.203
 34.77 192 34.77 c h
192 34.77 m f
1 0.227451 0.2 rg
192 81.125 m 177.762 81.125 165.531 89.688 160.152 101.941 c 164.172 107.367
 171.695 109.852 178.68 106.949 c 182.781 105.246 187.281 104.305 192 104.305
 c 196.719 104.305 201.219 105.246 205.32 106.949 c 212.301 109.852 219.828
 107.367 223.848 101.941 c 218.469 89.688 206.238 81.125 192 81.125 c h
192 81.125 m f
0.976471 0.619608 0.286275 rg
260.773 228.574 m 258.484 222.594 251.785 219.602 245.809 221.891 c 138.191
 221.891 l 132.215 219.602 125.516 222.594 123.227 228.574 c 120.941 234.551
 123.934 241.25 129.91 243.539 c 149.742 251.125 170.633 254.969 192 254.969
 c 213.367 254.969 234.258 251.125 254.09 243.539 c 260.066 241.25 263.059
 234.551 260.773 228.574 c h
260.773 228.574 m f
0.968627 0.745098 0.282353 rg
192 231.789 m 170.109 231.789 148.988 227.191 129.219 218.113 c 123.402
 215.445 120.848 208.566 123.52 202.746 c 126.191 196.93 133.07 194.379 
138.887 197.051 c 155.602 204.723 173.473 208.613 192 208.613 c 210.527 
208.613 228.398 204.723 245.113 197.051 c 250.93 194.379 257.812 196.93 
260.48 202.75 c 263.152 208.566 260.602 215.445 254.781 218.117 c 235.012
 227.191 213.891 231.789 192 231.789 c h
192 231.789 m f
1 0.227451 0.2 rg
311.52 202.672 m 310.691 199.582 307.516 197.746 304.422 198.574 c 293.227
 201.574 l 290.137 202.402 288.305 205.578 289.133 208.672 c 289.957 211.762
 293.137 213.598 296.23 212.77 c 307.422 209.77 l 310.516 208.941 312.352
 205.762 311.52 202.672 c h
311.52 202.672 m f
295.023 174.098 m 292.758 171.832 289.09 171.832 286.828 174.098 c 278.633
 182.293 l 276.371 184.555 276.371 188.223 278.633 190.488 c 280.898 192.75
 284.566 192.75 286.828 190.488 c 295.023 182.293 l 297.285 180.027 297.285
 176.359 295.023 174.098 c h
295.023 174.098 m f
0.996078 0.368627 0.286275 rg
90.77 201.574 m 79.574 198.574 l 76.484 197.746 73.309 199.582 72.48 202.672
 c 71.648 205.762 73.484 208.941 76.574 209.77 c 87.77 212.77 l 90.863 213.598
 94.039 211.762 94.867 208.672 c 95.695 205.578 93.863 202.402 90.77 201.574
 c h
90.77 201.574 m f
105.367 190.488 m 107.629 188.223 107.629 184.555 105.367 182.293 c 97.172
 174.098 l 94.91 171.832 91.242 171.832 88.977 174.098 c 86.715 176.359 
86.715 180.027 88.977 182.293 c 97.172 190.488 l 99.434 192.75 103.105 192.75
 105.367 190.488 c h
105.367 190.488 m f
1 0.227451 0.2 rg
307.426 228.57 m 296.23 225.57 l 293.137 224.742 289.961 226.578 289.133
 229.668 c 288.305 232.758 290.137 235.938 293.23 236.766 c 304.426 239.766
 l 307.516 240.594 310.691 238.758 311.52 235.668 c 312.352 232.574 310.516
 229.398 307.426 228.57 c h
307.426 228.57 m f
0.996078 0.368627 0.286275 rg
72.48 235.668 m 73.309 238.758 76.484 240.594 79.578 239.766 c 90.773 236.766
 l 93.863 235.938 95.695 232.758 94.867 229.668 c 94.043 226.578 90.863 
224.742 87.77 225.57 c 76.578 228.57 l 73.484 229.398 71.648 232.574 72.48
 235.668 c h
72.48 235.668 m f
Q Q
showpage
%%Trailer
end
%%EOF
