%!PS-Adobe-3.0 EPSF-3.0
%%Creator: cairo 1.16.0 (https://cairographics.org)
%%CreationDate: Tue Oct 20 13:20:28 2020
%%Pages: 1
%%DocumentData: Clean7Bit
%%LanguageLevel: 2
%%BoundingBox: 0 0 384 384
%%EndComments
%%BeginProlog
50 dict begin
/q { gsave } bind def
/Q { grestore } bind def
/cm { 6 array astore concat } bind def
/w { setlinewidth } bind def
/J { setlinecap } bind def
/j { setlinejoin } bind def
/M { setmiterlimit } bind def
/d { setdash } bind def
/m { moveto } bind def
/l { lineto } bind def
/c { curveto } bind def
/h { closepath } bind def
/re { exch dup neg 3 1 roll 5 3 roll moveto 0 rlineto
      0 exch rlineto 0 rlineto closepath } bind def
/S { stroke } bind def
/f { fill } bind def
/f* { eofill } bind def
/n { newpath } bind def
/W { clip } bind def
/W* { eoclip } bind def
/BT { } bind def
/ET { } bind def
/BDC { mark 3 1 roll /BDC pdfmark } bind def
/EMC { mark /EMC pdfmark } bind def
/cairo_store_point { /cairo_point_y exch def /cairo_point_x exch def } def
/Tj { show currentpoint cairo_store_point } bind def
/TJ {
  {
    dup
    type /stringtype eq
    { show } { -0.001 mul 0 cairo_font_matrix dtransform rmoveto } ifelse
  } forall
  currentpoint cairo_store_point
} bind def
/cairo_selectfont { cairo_font_matrix aload pop pop pop 0 0 6 array astore
    cairo_font exch selectfont cairo_point_x cairo_point_y moveto } bind def
/Tf { pop /cairo_font exch def /cairo_font_matrix where
      { pop cairo_selectfont } if } bind def
/Td { matrix translate cairo_font_matrix matrix concatmatrix dup
      /cairo_font_matrix exch def dup 4 get exch 5 get cairo_store_point
      /cairo_font where { pop cairo_selectfont } if } bind def
/Tm { 2 copy 8 2 roll 6 array astore /cairo_font_matrix exch def
      cairo_store_point /cairo_font where { pop cairo_selectfont } if } bind def
/g { setgray } bind def
/rg { setrgbcolor } bind def
/d1 { setcachedevice } bind def
/cairo_data_source {
  CairoDataIndex CairoData length lt
    { CairoData CairoDataIndex get /CairoDataIndex CairoDataIndex 1 add def }
    { () } ifelse
} def
/cairo_flush_ascii85_file { cairo_ascii85_file status { cairo_ascii85_file flushfile } if } def
/cairo_image { image cairo_flush_ascii85_file } def
/cairo_imagemask { imagemask cairo_flush_ascii85_file } def
%%EndProlog
%%BeginSetup
%%EndSetup
%%Page: 1 1
%%BeginPageSetup
%%PageBoundingBox: 0 0 384 384
%%EndPageSetup
q 0 0 384 384 rectclip
1 0 0 -1 0 384 cm q
0.996078 0.368627 0.286275 rg
350.059 33.941 m 168.633 36.43 l 132.527 54.793 88.805 77.027 88.805 77.027
 c 306.973 295.195 l 371.477 168.355 l 393.566 124.848 386.434 70.316 350.059
 33.941 c h
350.059 33.941 m f
0.996078 0.521569 0.4 rg
350.059 33.941 m 313.684 -2.434 259.152 -9.566 215.645 12.523 c 215.645
 12.523 194.023 23.52 168.633 36.43 c 246.102 39.047 311.523 89.18 336.664
 158.605 c 340.035 167.926 352.762 169.02 357.648 160.398 c 359.77 156.648
 l 383.469 114.75 380.969 64.848 350.059 33.941 c h
350.059 33.941 m f
1 0.831373 0.631373 rg
324.512 221.746 m 324.512 311.355 251.867 384 162.254 384 c 72.645 384 
0 311.355 0 221.746 c 0 132.133 72.645 59.488 162.254 59.488 c 251.867 59.488
 324.512 132.133 324.512 221.746 c h
324.512 221.746 m f
0.996078 0.368627 0.286275 rg
301.332 221.746 m 301.332 298.555 239.066 360.82 162.254 360.82 c 85.445
 360.82 23.18 298.555 23.18 221.746 c 23.18 144.934 85.445 82.668 162.254
 82.668 c 239.066 82.668 301.332 144.934 301.332 221.746 c h
301.332 221.746 m f
0.996078 0.521569 0.4 rg
278.152 221.746 m 278.152 285.754 226.266 337.641 162.254 337.641 c 98.246
 337.641 46.359 285.754 46.359 221.746 c 46.359 157.734 98.246 105.848 162.254
 105.848 c 226.266 105.848 278.152 157.734 278.152 221.746 c h
278.152 221.746 m f
0.709804 0.219608 0.25098 rg
245.922 199.891 m 240.125 194.094 236.867 186.234 236.867 178.039 c 236.867
 160.969 223.031 147.133 205.961 147.133 c 197.766 147.133 189.906 143.875
 184.109 138.078 c 178.074 132.043 170.164 129.027 162.254 129.027 c 162.254
 314.461 l 170.164 314.461 178.074 311.445 184.109 305.41 c 189.906 299.613
 197.766 296.355 205.961 296.355 c 223.031 296.355 236.867 282.52 236.867
 265.453 c 236.867 257.254 240.125 249.395 245.922 243.598 c 257.992 231.527
 257.992 211.961 245.922 199.891 c h
245.922 199.891 m f
1 0.227451 0.2 rg
225.004 199.891 m 220.656 194.094 218.215 186.234 218.215 178.039 c 218.215
 160.969 207.84 147.133 195.035 147.133 c 188.887 147.133 182.992 143.875
 178.645 138.078 c 174.121 132.043 168.188 129.027 162.254 129.027 c 154.348
 129.027 146.438 132.043 140.402 138.078 c 134.605 143.875 126.746 147.133
 118.547 147.133 c 101.48 147.133 87.645 160.969 87.645 178.039 c 87.645
 186.234 84.387 194.094 78.59 199.891 c 66.52 211.961 66.52 231.527 78.59
 243.598 c 84.387 249.395 87.645 257.254 87.645 265.453 c 87.645 282.52 
101.48 296.355 118.547 296.355 c 126.746 296.355 134.605 299.613 140.402
 305.41 c 146.438 311.445 154.348 314.461 162.254 314.461 c 168.188 314.461
 174.121 311.445 178.645 305.41 c 182.992 299.613 188.891 296.355 195.035
 296.355 c 207.84 296.355 218.215 282.52 218.215 265.453 c 218.215 257.254
 220.656 249.395 225.004 243.598 c 234.059 231.527 234.059 211.961 225.004
 199.891 c h
225.004 199.891 m f
Q Q
showpage
%%Trailer
end
%%EOF
