%!PS-Adobe-3.0 EPSF-3.0
%%Creator: cairo 1.16.0 (https://cairographics.org)
%%CreationDate: Tue Oct 20 13:20:28 2020
%%Pages: 1
%%DocumentData: Clean7Bit
%%LanguageLevel: 2
%%BoundingBox: 0 0 384 384
%%EndComments
%%BeginProlog
50 dict begin
/q { gsave } bind def
/Q { grestore } bind def
/cm { 6 array astore concat } bind def
/w { setlinewidth } bind def
/J { setlinecap } bind def
/j { setlinejoin } bind def
/M { setmiterlimit } bind def
/d { setdash } bind def
/m { moveto } bind def
/l { lineto } bind def
/c { curveto } bind def
/h { closepath } bind def
/re { exch dup neg 3 1 roll 5 3 roll moveto 0 rlineto
      0 exch rlineto 0 rlineto closepath } bind def
/S { stroke } bind def
/f { fill } bind def
/f* { eofill } bind def
/n { newpath } bind def
/W { clip } bind def
/W* { eoclip } bind def
/BT { } bind def
/ET { } bind def
/BDC { mark 3 1 roll /BDC pdfmark } bind def
/EMC { mark /EMC pdfmark } bind def
/cairo_store_point { /cairo_point_y exch def /cairo_point_x exch def } def
/Tj { show currentpoint cairo_store_point } bind def
/TJ {
  {
    dup
    type /stringtype eq
    { show } { -0.001 mul 0 cairo_font_matrix dtransform rmoveto } ifelse
  } forall
  currentpoint cairo_store_point
} bind def
/cairo_selectfont { cairo_font_matrix aload pop pop pop 0 0 6 array astore
    cairo_font exch selectfont cairo_point_x cairo_point_y moveto } bind def
/Tf { pop /cairo_font exch def /cairo_font_matrix where
      { pop cairo_selectfont } if } bind def
/Td { matrix translate cairo_font_matrix matrix concatmatrix dup
      /cairo_font_matrix exch def dup 4 get exch 5 get cairo_store_point
      /cairo_font where { pop cairo_selectfont } if } bind def
/Tm { 2 copy 8 2 roll 6 array astore /cairo_font_matrix exch def
      cairo_store_point /cairo_font where { pop cairo_selectfont } if } bind def
/g { setgray } bind def
/rg { setrgbcolor } bind def
/d1 { setcachedevice } bind def
/cairo_data_source {
  CairoDataIndex CairoData length lt
    { CairoData CairoDataIndex get /CairoDataIndex CairoDataIndex 1 add def }
    { () } ifelse
} def
/cairo_flush_ascii85_file { cairo_ascii85_file status { cairo_ascii85_file flushfile } if } def
/cairo_image { image cairo_flush_ascii85_file } def
/cairo_imagemask { imagemask cairo_flush_ascii85_file } def
%%EndProlog
%%BeginSetup
%%EndSetup
%%Page: 1 1
%%BeginPageSetup
%%PageBoundingBox: 0 0 384 384
%%EndPageSetup
q 0 0 384 384 rectclip
1 0 0 -1 0 384 cm q
0.996078 0.368627 0.286275 rg
350.059 33.941 m 168.633 36.43 l 132.527 54.793 88.805 77.027 88.805 77.027
 c 306.973 295.195 l 371.477 168.355 l 393.566 124.848 386.434 70.316 350.059
 33.941 c h
350.059 33.941 m f
0.996078 0.521569 0.4 rg
350.059 33.941 m 313.684 -2.434 259.152 -9.566 215.645 12.523 c 215.645
 12.523 194.023 23.52 168.633 36.43 c 246.102 39.047 311.523 89.18 336.664
 158.605 c 340.035 167.926 352.762 169.02 357.648 160.398 c 359.77 156.648
 l 383.469 114.75 380.969 64.848 350.059 33.941 c h
350.059 33.941 m f
1 0.831373 0.631373 rg
324.512 221.746 m 324.512 311.355 251.867 384 162.254 384 c 72.645 384 
0 311.355 0 221.746 c 0 132.133 72.645 59.488 162.254 59.488 c 251.867 59.488
 324.512 132.133 324.512 221.746 c h
324.512 221.746 m f
0.996078 0.368627 0.286275 rg
301.332 221.746 m 301.332 298.555 239.066 360.82 162.254 360.82 c 85.445
 360.82 23.18 298.555 23.18 221.746 c 23.18 144.934 85.445 82.668 162.254
 82.668 c 239.066 82.668 301.332 144.934 301.332 221.746 c h
301.332 221.746 m f
0.996078 0.521569 0.4 rg
278.152 221.746 m 278.152 285.754 226.266 337.641 162.254 337.641 c 98.246
 337.641 46.359 285.754 46.359 221.746 c 46.359 157.734 98.246 105.848 162.254
 105.848 c 226.266 105.848 278.152 157.734 278.152 221.746 c h
278.152 221.746 m f
0.709804 0.219608 0.25098 rg
191.227 171.562 m 185.684 168.363 178.598 170.262 175.395 175.805 c 172.289
 181.184 l 167.832 188.91 156.68 188.91 152.219 181.184 c 149.113 175.805
 l 145.91 170.262 138.824 168.363 133.281 171.562 c 127.734 174.762 125.836
 181.852 129.039 187.395 c 132.145 192.773 l 136.602 200.5 131.027 210.156
 122.105 210.156 c 115.895 210.156 l 109.492 210.156 104.305 215.348 104.305
 221.746 c 104.305 228.148 109.492 233.336 115.895 233.336 c 122.105 233.336
 l 131.027 233.336 136.605 242.996 132.145 250.723 c 129.039 256.102 l 125.836
 261.645 127.734 268.73 133.277 271.934 c 138.82 275.133 145.91 273.234 
149.109 267.691 c 152.215 262.312 l 156.676 254.586 167.828 254.586 172.289
 262.312 c 175.395 267.691 l 178.598 273.234 185.684 275.133 191.227 271.934
 c 196.77 268.73 198.668 261.645 195.469 256.102 c 192.363 250.723 l 187.902
 242.996 193.48 233.336 202.402 233.336 c 208.613 233.336 l 215.012 233.336
 220.203 228.148 220.203 221.746 c 220.203 215.348 215.012 210.156 208.613
 210.156 c 202.402 210.156 l 193.48 210.156 187.902 200.5 192.363 192.773
 c 195.469 187.395 l 198.668 181.852 196.77 174.762 191.227 171.562 c h
191.227 171.562 m f
1 0.227451 0.2 rg
197.023 221.746 m 197.023 240.949 181.457 256.516 162.254 256.516 c 143.051
 256.516 127.484 240.949 127.484 221.746 c 127.484 202.543 143.051 186.977
 162.254 186.977 c 181.457 186.977 197.023 202.543 197.023 221.746 c h
197.023 221.746 m f
0.996078 0.968627 0.490196 rg
173.844 221.746 m 173.844 228.148 168.656 233.336 162.254 233.336 c 155.852
 233.336 150.664 228.148 150.664 221.746 c 150.664 215.348 155.852 210.156
 162.254 210.156 c 168.656 210.156 173.844 215.348 173.844 221.746 c h
173.844 221.746 m f
Q Q
showpage
%%Trailer
end
%%EOF
