%!PS-Adobe-3.0 EPSF-3.0
%%Creator: cairo 1.16.0 (https://cairographics.org)
%%CreationDate: Tue Oct 20 13:20:29 2020
%%Pages: 1
%%DocumentData: Clean7Bit
%%LanguageLevel: 2
%%BoundingBox: 0 0 384 384
%%EndComments
%%BeginProlog
50 dict begin
/q { gsave } bind def
/Q { grestore } bind def
/cm { 6 array astore concat } bind def
/w { setlinewidth } bind def
/J { setlinecap } bind def
/j { setlinejoin } bind def
/M { setmiterlimit } bind def
/d { setdash } bind def
/m { moveto } bind def
/l { lineto } bind def
/c { curveto } bind def
/h { closepath } bind def
/re { exch dup neg 3 1 roll 5 3 roll moveto 0 rlineto
      0 exch rlineto 0 rlineto closepath } bind def
/S { stroke } bind def
/f { fill } bind def
/f* { eofill } bind def
/n { newpath } bind def
/W { clip } bind def
/W* { eoclip } bind def
/BT { } bind def
/ET { } bind def
/BDC { mark 3 1 roll /BDC pdfmark } bind def
/EMC { mark /EMC pdfmark } bind def
/cairo_store_point { /cairo_point_y exch def /cairo_point_x exch def } def
/Tj { show currentpoint cairo_store_point } bind def
/TJ {
  {
    dup
    type /stringtype eq
    { show } { -0.001 mul 0 cairo_font_matrix dtransform rmoveto } ifelse
  } forall
  currentpoint cairo_store_point
} bind def
/cairo_selectfont { cairo_font_matrix aload pop pop pop 0 0 6 array astore
    cairo_font exch selectfont cairo_point_x cairo_point_y moveto } bind def
/Tf { pop /cairo_font exch def /cairo_font_matrix where
      { pop cairo_selectfont } if } bind def
/Td { matrix translate cairo_font_matrix matrix concatmatrix dup
      /cairo_font_matrix exch def dup 4 get exch 5 get cairo_store_point
      /cairo_font where { pop cairo_selectfont } if } bind def
/Tm { 2 copy 8 2 roll 6 array astore /cairo_font_matrix exch def
      cairo_store_point /cairo_font where { pop cairo_selectfont } if } bind def
/g { setgray } bind def
/rg { setrgbcolor } bind def
/d1 { setcachedevice } bind def
/cairo_data_source {
  CairoDataIndex CairoData length lt
    { CairoData CairoDataIndex get /CairoDataIndex CairoDataIndex 1 add def }
    { () } ifelse
} def
/cairo_flush_ascii85_file { cairo_ascii85_file status { cairo_ascii85_file flushfile } if } def
/cairo_image { image cairo_flush_ascii85_file } def
/cairo_imagemask { imagemask cairo_flush_ascii85_file } def
%%EndProlog
%%BeginSetup
%%EndSetup
%%Page: 1 1
%%BeginPageSetup
%%PageBoundingBox: 0 0 384 384
%%EndPageSetup
q 0 0 384 384 rectclip
1 0 0 -1 0 384 cm q
0.996078 0.368627 0.286275 rg
99.285 220.203 m 99.285 384 l 122.461 384 l 148.066 384 168.82 363.246 
168.82 337.641 c 168.82 220.203 l h
99.285 220.203 m f
0.996078 0.521569 0.4 rg
23.18 314.461 m 10.379 314.461 0 348.02 0 360.82 c 0 373.621 10.379 384
 23.18 384 c 99.285 384 l 124.887 384 145.641 363.246 145.641 337.641 c 
145.641 314.461 l h
23.18 314.461 m f
99.285 165.672 m 145.641 243.379 l 158.445 243.379 168.82 233.004 168.82
 220.203 c 168.82 165.672 l h
99.285 165.672 m f
1 0.678431 0.517647 rg
23.18 337.641 m 122.461 337.641 l 135.266 337.641 145.641 327.266 145.641
 314.461 c 145.641 96.539 l 145.641 81.625 133.555 69.539 118.641 69.539
 c 113.566 69.539 108.594 70.969 104.293 73.664 c 39.398 114.363 0 185.582
 0 262.184 c 0 360.82 l 0 348.02 10.379 337.641 23.18 337.641 c h
23.18 337.641 m f
0.996078 0.368627 0.286275 rg
360.82 314.461 m 337.641 384 l 360.82 384 l 373.625 384 384 373.625 384
 360.82 c 384 348.02 373.625 314.461 360.82 314.461 c h
360.82 314.461 m f
0.996078 0.521569 0.4 rg
215.18 220.203 m 215.18 337.641 l 215.18 363.246 235.934 384 261.539 384
 c 337.641 384 l 350.445 384 360.82 373.625 360.82 360.82 c 360.82 220.203
 l h
215.18 220.203 m f
279.711 73.66 m 275.621 71.102 270.934 69.68 266.125 69.547 c 360.82 337.637
 l 373.625 337.637 384 348.016 384 360.816 c 384 262.184 l 384 185.574 344.602
 114.363 279.711 73.66 c h
279.711 73.66 m f
1 0.678431 0.517647 rg
360.82 262.184 m 360.82 337.637 l 261.539 337.637 l 248.734 337.637 238.359
 327.262 238.359 314.457 c 238.359 243.375 l 225.555 243.375 215.18 233 
215.18 220.199 c 215.18 165.672 l 238.359 165.672 l 238.359 96.535 l 238.359
 81.625 250.449 69.535 265.363 69.535 c 265.617 69.535 265.871 69.543 266.125
 69.547 c 269.938 69.719 273.66 71.133 276.906 73.66 c 329.121 114.363 360.82
 185.574 360.82 262.184 c h
360.82 262.184 m f
0.996078 0.521569 0.4 rg
192 0 m 180.41 46.359 l 215.18 23.18 l 215.18 5.793 l 215.18 2.594 212.586
 0 209.383 0 c h
192 0 m f
1 0.678431 0.517647 rg
168.82 5.793 m 168.82 23.18 l 192 46.359 l 192 0 l 174.617 0 l 171.414 
0 168.82 2.594 168.82 5.793 c h
168.82 5.793 m f
1 0.831373 0.631373 rg
192 23.18 m 180.41 69.539 l 215.18 46.359 l 215.18 23.18 l h
192 23.18 m f
1 0.984314 0.745098 rg
168.82 23.18 m 168.82 46.359 l 192 69.539 l 192 23.18 l h
168.82 23.18 m f
0.996078 0.521569 0.4 rg
192 46.359 m 180.41 92.715 l 215.18 69.539 l 215.18 46.359 l h
192 46.359 m f
1 0.678431 0.517647 rg
168.82 46.359 m 168.82 69.539 l 192 92.715 l 192 46.359 l h
168.82 46.359 m f
1 0.831373 0.631373 rg
192 69.539 m 180.41 115.895 l 215.18 92.715 l 215.18 69.539 l h
192 69.539 m f
1 0.984314 0.745098 rg
168.82 69.539 m 168.82 92.715 l 192 115.895 l 192 69.539 l h
168.82 69.539 m f
0.996078 0.521569 0.4 rg
192 92.715 m 180.41 139.074 l 215.18 115.895 l 215.18 92.715 l h
192 92.715 m f
1 0.678431 0.517647 rg
168.82 92.715 m 168.82 115.895 l 192 139.074 l 192 92.715 l h
168.82 92.715 m f
1 0.984314 0.745098 rg
239.129 150.664 m 225.902 150.664 215.18 139.941 215.18 126.711 c 215.18
 115.895 l 168.82 115.895 l 168.82 126.711 l 168.82 139.941 158.098 150.664
 144.871 150.664 c 135.27 150.664 127.484 158.449 127.484 168.047 c 127.484
 177.648 135.27 185.434 144.871 185.434 c 164.148 185.434 181.289 176.09
 192 161.695 c 202.711 176.09 219.852 185.434 239.129 185.434 c 248.73 185.434
 256.516 177.648 256.516 168.047 c 256.516 158.449 248.73 150.664 239.129
 150.664 c h
239.129 150.664 m f
Q Q
showpage
%%Trailer
end
%%EOF
