%!PS-Adobe-3.0 EPSF-3.0
%%Creator: cairo 1.16.0 (https://cairographics.org)
%%CreationDate: Tue Oct 20 13:20:31 2020
%%Pages: 1
%%DocumentData: Clean7Bit
%%LanguageLevel: 2
%%BoundingBox: 0 1 384 383
%%EndComments
%%BeginProlog
50 dict begin
/q { gsave } bind def
/Q { grestore } bind def
/cm { 6 array astore concat } bind def
/w { setlinewidth } bind def
/J { setlinecap } bind def
/j { setlinejoin } bind def
/M { setmiterlimit } bind def
/d { setdash } bind def
/m { moveto } bind def
/l { lineto } bind def
/c { curveto } bind def
/h { closepath } bind def
/re { exch dup neg 3 1 roll 5 3 roll moveto 0 rlineto
      0 exch rlineto 0 rlineto closepath } bind def
/S { stroke } bind def
/f { fill } bind def
/f* { eofill } bind def
/n { newpath } bind def
/W { clip } bind def
/W* { eoclip } bind def
/BT { } bind def
/ET { } bind def
/BDC { mark 3 1 roll /BDC pdfmark } bind def
/EMC { mark /EMC pdfmark } bind def
/cairo_store_point { /cairo_point_y exch def /cairo_point_x exch def } def
/Tj { show currentpoint cairo_store_point } bind def
/TJ {
  {
    dup
    type /stringtype eq
    { show } { -0.001 mul 0 cairo_font_matrix dtransform rmoveto } ifelse
  } forall
  currentpoint cairo_store_point
} bind def
/cairo_selectfont { cairo_font_matrix aload pop pop pop 0 0 6 array astore
    cairo_font exch selectfont cairo_point_x cairo_point_y moveto } bind def
/Tf { pop /cairo_font exch def /cairo_font_matrix where
      { pop cairo_selectfont } if } bind def
/Td { matrix translate cairo_font_matrix matrix concatmatrix dup
      /cairo_font_matrix exch def dup 4 get exch 5 get cairo_store_point
      /cairo_font where { pop cairo_selectfont } if } bind def
/Tm { 2 copy 8 2 roll 6 array astore /cairo_font_matrix exch def
      cairo_store_point /cairo_font where { pop cairo_selectfont } if } bind def
/g { setgray } bind def
/rg { setrgbcolor } bind def
/d1 { setcachedevice } bind def
/cairo_data_source {
  CairoDataIndex CairoData length lt
    { CairoData CairoDataIndex get /CairoDataIndex CairoDataIndex 1 add def }
    { () } ifelse
} def
/cairo_flush_ascii85_file { cairo_ascii85_file status { cairo_ascii85_file flushfile } if } def
/cairo_image { image cairo_flush_ascii85_file } def
/cairo_imagemask { imagemask cairo_flush_ascii85_file } def
%%EndProlog
%%BeginSetup
%%EndSetup
%%Page: 1 1
%%BeginPageSetup
%%PageBoundingBox: 0 1 384 383
%%EndPageSetup
q 0 1 384 382 rectclip
1 0 0 -1 0 384 cm q
1 0.678431 0.517647 rg
333.926 247.59 m 249.516 221.523 l 359.559 382.566 l 376.816 382.566 l 
379.992 382.566 382.566 379.992 382.566 376.816 c 382.566 313.547 l 382.566
 282.523 362.098 256.285 333.926 247.59 c h
333.926 247.59 m f
1 0.831373 0.631373 rg
319.332 247.59 m 249.516 221.523 l 249.516 81.953 l 134.484 81.953 l 134.484
 221.523 l 50.074 247.59 l 21.906 256.285 1.434 282.523 1.434 313.547 c 
1.434 376.816 l 1.434 379.992 4.008 382.566 7.184 382.566 c 58.949 382.566
 l 70.453 359.559 l 81.953 382.566 l 302.047 382.566 l 313.547 359.559 l
 325.051 382.566 l 359.559 382.566 l 359.559 313.547 l 359.559 282.523 342.629
 256.285 319.332 247.59 c h
319.332 247.59 m f
1 0.678431 0.517647 rg
313.547 325.051 m 307.195 325.051 302.047 330.203 302.047 336.555 c 302.047
 382.566 l 325.051 382.566 l 325.051 336.555 l 325.051 330.203 319.902 325.051
 313.547 325.051 c h
313.547 325.051 m f
70.453 325.051 m 64.098 325.051 58.949 330.203 58.949 336.555 c 58.949 
382.566 l 81.953 382.566 l 81.953 336.555 l 81.953 330.203 76.805 325.051
 70.453 325.051 c h
70.453 325.051 m f
94.227 24.441 m 78.344 24.441 65.469 37.316 65.469 53.199 c 65.469 69.078
 78.344 81.953 94.227 81.953 c 192 81.953 l 192 24.441 l h
94.227 24.441 m f
0.996078 0.521569 0.4 rg
289.773 24.441 m 192 24.441 l 192 81.953 l 289.773 81.953 l 305.656 81.953
 318.531 69.078 318.531 53.199 c 318.531 37.316 305.656 24.441 289.773 24.441
 c h
289.773 24.441 m f
1 0.678431 0.517647 rg
261.02 1.434 m 192 173.98 l 242.824 173.98 284.023 132.777 284.023 81.953
 c 284.023 7.184 l 284.023 4.008 281.449 1.434 278.273 1.434 c h
261.02 1.434 m f
1 0.831373 0.631373 rg
261.02 81.953 m 261.02 1.434 l 105.727 1.434 l 102.551 1.434 99.977 4.008
 99.977 7.184 c 99.977 81.953 l 99.977 132.777 141.176 173.98 192 173.98
 c 230.117 173.98 261.02 132.777 261.02 81.953 c h
261.02 81.953 m f
1 0.227451 0.2 rg
192 35.941 m 172.941 35.941 157.492 51.395 157.492 70.453 c 157.496 93.934
 l 157.539 97.262 158.625 100.223 160.391 102.613 c 223.609 102.613 l 225.375
 100.223 226.461 97.262 226.504 93.934 c 226.508 70.453 l 226.508 51.395
 211.059 35.941 192 35.941 c h
192 35.941 m f
0.996078 0.368627 0.286275 rg
192 81.953 m 177.867 81.953 165.73 90.453 160.391 102.613 c 164.379 108
 171.848 110.465 178.781 107.586 c 182.852 105.895 187.316 104.961 192 104.961
 c 196.684 104.961 201.148 105.895 205.219 107.586 c 212.152 110.465 219.621
 108 223.609 102.613 c 218.27 90.453 206.133 81.953 192 81.953 c h
192 81.953 m f
0.678431 0.94902 0.960784 rg
352.93 148.305 m 357.695 140.051 354.867 129.5 346.617 124.734 c 338.363
 119.969 327.809 122.797 323.047 131.047 c 317.293 141.012 l 291.617 139.469
 l 305.789 160.934 l 300.039 170.895 l 295.273 179.148 298.102 189.699 306.355
 194.465 c 314.609 199.23 325.16 196.402 329.926 188.148 c 340.93 194.504
 355 190.73 361.352 179.73 c 367.707 168.727 363.934 154.656 352.93 148.305
 c h
352.93 148.305 m f
0.839216 0.976471 0.980392 rg
54.074 188.152 m 58.84 196.402 69.391 199.23 77.645 194.469 c 85.898 189.703
 88.727 179.148 83.961 170.898 c 78.211 160.934 l 92.383 139.469 l 66.707
 141.012 l 60.953 131.051 l 56.191 122.797 45.637 119.969 37.383 124.734
 c 29.133 129.5 26.305 140.051 31.07 148.305 c 20.066 154.656 16.297 168.727
 22.648 179.73 c 29 190.734 43.07 194.504 54.074 188.152 c h
54.074 188.152 m f
0.596078 0.827451 0.952941 rg
363.871 104.809 m 363.871 107.984 361.293 110.562 358.117 110.562 c 354.941
 110.562 352.367 107.984 352.367 104.809 c 352.367 101.633 354.941 99.059
 358.117 99.059 c 361.293 99.059 363.871 101.633 363.871 104.809 c h
363.871 104.809 m f
0.513726 0.701961 0.945098 rg
384 139.676 m 384 142.852 381.426 145.426 378.25 145.426 c 375.07 145.426
 372.496 142.852 372.496 139.676 c 372.496 136.5 375.07 133.926 378.25 133.926
 c 381.426 133.926 384 136.5 384 139.676 c h
384 139.676 m f
0.596078 0.827451 0.952941 rg
340.863 214.391 m 340.863 217.566 338.289 220.141 335.113 220.141 c 331.938
 220.141 329.359 217.566 329.359 214.391 c 329.359 211.215 331.938 208.637
 335.113 208.637 c 338.289 208.637 340.863 211.215 340.863 214.391 c h
340.863 214.391 m f
0.678431 0.94902 0.960784 rg
54.641 214.391 m 54.641 217.566 52.062 220.141 48.887 220.141 c 45.711 
220.141 43.137 217.566 43.137 214.391 c 43.137 211.215 45.711 208.637 48.887
 208.637 c 52.062 208.637 54.641 211.215 54.641 214.391 c h
54.641 214.391 m f
31.633 104.809 m 31.633 107.984 29.059 110.562 25.883 110.562 c 22.707 
110.562 20.129 107.984 20.129 104.809 c 20.129 101.633 22.707 99.059 25.883
 99.059 c 29.059 99.059 31.633 101.633 31.633 104.809 c h
31.633 104.809 m f
0.596078 0.827451 0.952941 rg
11.504 139.676 m 11.504 142.852 8.93 145.426 5.75 145.426 c 2.574 145.426
 0 142.852 0 139.676 c 0 136.5 2.574 133.926 5.75 133.926 c 8.93 133.926
 11.504 136.5 11.504 139.676 c h
11.504 139.676 m f
Q Q
showpage
%%Trailer
end
%%EOF
