%!PS-Adobe-3.0 EPSF-3.0
%%Creator: cairo 1.16.0 (https://cairographics.org)
%%CreationDate: Tue Oct 20 13:20:31 2020
%%Pages: 1
%%DocumentData: Clean7Bit
%%LanguageLevel: 2
%%BoundingBox: 0 0 384 384
%%EndComments
%%BeginProlog
50 dict begin
/q { gsave } bind def
/Q { grestore } bind def
/cm { 6 array astore concat } bind def
/w { setlinewidth } bind def
/J { setlinecap } bind def
/j { setlinejoin } bind def
/M { setmiterlimit } bind def
/d { setdash } bind def
/m { moveto } bind def
/l { lineto } bind def
/c { curveto } bind def
/h { closepath } bind def
/re { exch dup neg 3 1 roll 5 3 roll moveto 0 rlineto
      0 exch rlineto 0 rlineto closepath } bind def
/S { stroke } bind def
/f { fill } bind def
/f* { eofill } bind def
/n { newpath } bind def
/W { clip } bind def
/W* { eoclip } bind def
/BT { } bind def
/ET { } bind def
/BDC { mark 3 1 roll /BDC pdfmark } bind def
/EMC { mark /EMC pdfmark } bind def
/cairo_store_point { /cairo_point_y exch def /cairo_point_x exch def } def
/Tj { show currentpoint cairo_store_point } bind def
/TJ {
  {
    dup
    type /stringtype eq
    { show } { -0.001 mul 0 cairo_font_matrix dtransform rmoveto } ifelse
  } forall
  currentpoint cairo_store_point
} bind def
/cairo_selectfont { cairo_font_matrix aload pop pop pop 0 0 6 array astore
    cairo_font exch selectfont cairo_point_x cairo_point_y moveto } bind def
/Tf { pop /cairo_font exch def /cairo_font_matrix where
      { pop cairo_selectfont } if } bind def
/Td { matrix translate cairo_font_matrix matrix concatmatrix dup
      /cairo_font_matrix exch def dup 4 get exch 5 get cairo_store_point
      /cairo_font where { pop cairo_selectfont } if } bind def
/Tm { 2 copy 8 2 roll 6 array astore /cairo_font_matrix exch def
      cairo_store_point /cairo_font where { pop cairo_selectfont } if } bind def
/g { setgray } bind def
/rg { setrgbcolor } bind def
/d1 { setcachedevice } bind def
/cairo_data_source {
  CairoDataIndex CairoData length lt
    { CairoData CairoDataIndex get /CairoDataIndex CairoDataIndex 1 add def }
    { () } ifelse
} def
/cairo_flush_ascii85_file { cairo_ascii85_file status { cairo_ascii85_file flushfile } if } def
/cairo_image { image cairo_flush_ascii85_file } def
/cairo_imagemask { imagemask cairo_flush_ascii85_file } def
%%EndProlog
%%BeginSetup
%%EndSetup
%%Page: 1 1
%%BeginPageSetup
%%PageBoundingBox: 0 0 384 384
%%EndPageSetup
q 0 0 384 384 rectclip
1 0 0 -1 0 384 cm q
1 0.678431 0.517647 rg
334.992 224.828 m 249.949 198.566 l 360.82 384 l 378.207 384 l 381.406 
384 384 381.406 384 378.207 c 384 291.285 l 384 260.027 363.375 233.586 
334.992 224.828 c h
334.992 224.828 m f
1 0.831373 0.631373 rg
320.289 224.828 m 249.949 198.566 l 249.949 57.949 l 134.051 57.949 l 134.051
 198.566 l 49.008 224.828 l 20.625 233.586 0 260.027 0 291.285 c 0 378.207
 l 0 381.406 2.594 384 5.793 384 c 57.949 384 l 69.539 337.641 l 81.125 
384 l 302.875 384 l 314.461 337.641 l 326.051 384 l 360.82 384 l 360.82 
291.285 l 360.82 260.027 343.762 233.586 320.289 224.828 c h
320.289 224.828 m f
1 0.678431 0.517647 rg
314.461 302.875 m 308.062 302.875 302.875 308.062 302.875 314.461 c 302.875
 384 l 326.051 384 l 326.051 314.461 l 326.051 308.062 320.863 302.875 314.461
 302.875 c h
314.461 302.875 m f
69.539 302.875 m 63.137 302.875 57.949 308.062 57.949 314.461 c 57.949 
384 l 81.125 384 l 81.125 314.461 l 81.125 308.062 75.938 302.875 69.539
 302.875 c h
69.539 302.875 m f
93.488 0 m 77.488 0 64.516 12.973 64.516 28.973 c 64.516 44.977 77.488 
57.949 93.488 57.949 c 192 57.949 l 192 0 l h
93.488 0 m f
0.996078 0.521569 0.4 rg
290.512 0 m 192 0 l 192 57.949 l 290.512 57.949 l 306.512 57.949 319.484
 44.977 319.484 28.973 c 319.484 12.973 306.512 0 290.512 0 c h
290.512 0 m f
1 0.678431 0.517647 rg
261.539 0 m 192 150.664 l 243.207 150.664 284.715 109.152 284.715 57.949
 c 284.715 0 l h
261.539 0 m f
1 0.831373 0.631373 rg
261.539 57.949 m 261.539 0 l 99.285 0 l 99.285 57.949 l 99.285 109.152 
140.793 150.664 192 150.664 c 230.406 150.664 261.539 109.152 261.539 57.949
 c h
261.539 57.949 m f
1 0.227451 0.2 rg
192 34.77 m 172.797 34.77 157.23 50.336 157.23 69.539 c 157.234 70.02 l
 157.281 73.371 158.375 76.355 160.152 78.762 c 223.848 78.762 l 225.625
 76.355 226.719 73.371 226.766 70.02 c 226.77 69.539 l 226.77 50.336 211.203
 34.77 192 34.77 c h
192 34.77 m f
0.996078 0.368627 0.286275 rg
192 57.949 m 177.762 57.949 165.531 66.508 160.152 78.762 c 164.172 84.191
 171.695 86.672 178.68 83.773 c 182.781 82.066 187.281 81.125 192 81.125
 c 196.719 81.125 201.219 82.066 205.32 83.773 c 212.301 86.672 219.828 
84.191 223.848 78.762 c 218.469 66.508 206.238 57.949 192 57.949 c h
192 57.949 m f
0.996078 0.521569 0.4 rg
238.359 314.461 m 238.359 340.066 217.602 360.82 192 360.82 c 166.398 360.82
 145.641 340.066 145.641 314.461 c 145.641 288.859 166.398 268.105 192 268.105
 c 217.602 268.105 238.359 288.859 238.359 314.461 c h
238.359 314.461 m f
1 0.227451 0.2 rg
192 291.285 m 180.41 316.133 l 192 337.641 l 204.801 337.641 215.18 327.266
 215.18 314.461 c 215.18 301.66 204.801 291.285 192 291.285 c h
192 291.285 m f
0.996078 0.368627 0.286275 rg
168.82 314.461 m 168.82 327.266 179.199 337.641 192 337.641 c 192 291.285
 l 179.199 291.285 168.82 301.66 168.82 314.461 c h
168.82 314.461 m f
122.461 320.258 m 110.875 320.258 l 107.672 320.258 105.078 317.664 105.078
 314.461 c 105.078 311.262 107.672 308.668 110.875 308.668 c 122.461 308.668
 l 125.664 308.668 128.258 311.262 128.258 314.461 c 128.258 317.664 125.664
 320.258 122.461 320.258 c h
122.461 320.258 m f
1 0.227451 0.2 rg
273.125 320.258 m 261.539 320.258 l 258.336 320.258 255.742 317.664 255.742
 314.461 c 255.742 311.262 258.336 308.668 261.539 308.668 c 273.125 308.668
 l 276.328 308.668 278.922 311.262 278.922 314.461 c 278.922 317.664 276.328
 320.258 273.125 320.258 c h
273.125 320.258 m f
0.996078 0.368627 0.286275 rg
129.973 346.426 m 119.266 350.863 l 116.309 352.086 112.922 350.684 111.695
 347.727 c 110.469 344.77 111.875 341.379 114.832 340.156 c 125.539 335.719
 l 128.496 334.496 131.887 335.898 133.109 338.855 c 134.336 341.812 132.93
 345.203 129.973 346.426 c h
129.973 346.426 m f
1 0.227451 0.2 rg
269.168 288.77 m 258.461 293.207 l 255.504 294.43 252.113 293.027 250.891
 290.07 c 249.664 287.113 251.07 283.723 254.027 282.5 c 264.734 278.062
 l 267.691 276.84 271.078 278.242 272.305 281.199 c 273.531 284.156 272.125
 287.547 269.168 288.77 c h
269.168 288.77 m f
0.996078 0.368627 0.286275 rg
129.973 282.5 m 119.266 278.062 l 116.309 276.84 112.922 278.242 111.695
 281.199 c 110.469 284.156 111.875 287.547 114.832 288.77 c 125.539 293.207
 l 128.496 294.43 131.887 293.027 133.109 290.07 c 134.336 287.113 132.93
 283.723 129.973 282.5 c h
129.973 282.5 m f
1 0.227451 0.2 rg
269.168 340.156 m 258.461 335.719 l 255.504 334.496 252.113 335.898 250.891
 338.855 c 249.664 341.812 251.07 345.203 254.027 346.426 c 264.734 350.863
 l 267.691 352.086 271.078 350.684 272.305 347.727 c 273.531 344.77 272.125
 341.379 269.168 340.156 c h
269.168 340.156 m f
Q Q
showpage
%%Trailer
end
%%EOF
