%!PS-Adobe-3.0 EPSF-3.0
%%Creator: cairo 1.16.0 (https://cairographics.org)
%%CreationDate: Tue Oct 20 13:20:32 2020
%%Pages: 1
%%DocumentData: Clean7Bit
%%LanguageLevel: 2
%%BoundingBox: 0 0 384 384
%%EndComments
%%BeginProlog
50 dict begin
/q { gsave } bind def
/Q { grestore } bind def
/cm { 6 array astore concat } bind def
/w { setlinewidth } bind def
/J { setlinecap } bind def
/j { setlinejoin } bind def
/M { setmiterlimit } bind def
/d { setdash } bind def
/m { moveto } bind def
/l { lineto } bind def
/c { curveto } bind def
/h { closepath } bind def
/re { exch dup neg 3 1 roll 5 3 roll moveto 0 rlineto
      0 exch rlineto 0 rlineto closepath } bind def
/S { stroke } bind def
/f { fill } bind def
/f* { eofill } bind def
/n { newpath } bind def
/W { clip } bind def
/W* { eoclip } bind def
/BT { } bind def
/ET { } bind def
/BDC { mark 3 1 roll /BDC pdfmark } bind def
/EMC { mark /EMC pdfmark } bind def
/cairo_store_point { /cairo_point_y exch def /cairo_point_x exch def } def
/Tj { show currentpoint cairo_store_point } bind def
/TJ {
  {
    dup
    type /stringtype eq
    { show } { -0.001 mul 0 cairo_font_matrix dtransform rmoveto } ifelse
  } forall
  currentpoint cairo_store_point
} bind def
/cairo_selectfont { cairo_font_matrix aload pop pop pop 0 0 6 array astore
    cairo_font exch selectfont cairo_point_x cairo_point_y moveto } bind def
/Tf { pop /cairo_font exch def /cairo_font_matrix where
      { pop cairo_selectfont } if } bind def
/Td { matrix translate cairo_font_matrix matrix concatmatrix dup
      /cairo_font_matrix exch def dup 4 get exch 5 get cairo_store_point
      /cairo_font where { pop cairo_selectfont } if } bind def
/Tm { 2 copy 8 2 roll 6 array astore /cairo_font_matrix exch def
      cairo_store_point /cairo_font where { pop cairo_selectfont } if } bind def
/g { setgray } bind def
/rg { setrgbcolor } bind def
/d1 { setcachedevice } bind def
/cairo_data_source {
  CairoDataIndex CairoData length lt
    { CairoData CairoDataIndex get /CairoDataIndex CairoDataIndex 1 add def }
    { () } ifelse
} def
/cairo_flush_ascii85_file { cairo_ascii85_file status { cairo_ascii85_file flushfile } if } def
/cairo_image { image cairo_flush_ascii85_file } def
/cairo_imagemask { imagemask cairo_flush_ascii85_file } def
%%EndProlog
%%BeginSetup
%%EndSetup
%%Page: 1 1
%%BeginPageSetup
%%PageBoundingBox: 0 0 384 384
%%EndPageSetup
q 0 0 384 384 rectclip
1 0 0 -1 0 384 cm q
1 0.678431 0.517647 rg
334.992 248.008 m 249.949 221.746 l 360.82 384 l 378.207 384 l 381.406 
384 384 381.406 384 378.207 c 384 314.461 l 384 283.207 363.375 256.766 
334.992 248.008 c h
334.992 248.008 m f
1 0.831373 0.631373 rg
320.289 248.008 m 249.949 221.746 l 249.949 57.949 l 134.051 57.949 l 134.051
 221.746 l 49.008 248.008 l 20.625 256.766 0 283.203 0 314.461 c 0 378.207
 l 0 381.406 2.594 384 5.793 384 c 57.949 384 l 69.539 337.641 l 81.125 
384 l 180.41 384 l 192 360.82 l 203.59 384 l 302.875 384 l 314.461 337.641
 l 326.051 384 l 360.82 384 l 360.82 314.461 l 360.82 283.203 343.762 256.766
 320.289 248.008 c h
320.289 248.008 m f
1 0.678431 0.517647 rg
314.461 326.051 m 308.062 326.051 302.875 331.242 302.875 337.641 c 302.875
 384 l 326.051 384 l 326.051 337.641 l 326.051 331.242 320.863 326.051 314.461
 326.051 c h
314.461 326.051 m f
69.539 326.051 m 63.137 326.051 57.949 331.242 57.949 337.641 c 57.949 
384 l 81.125 384 l 81.125 337.641 l 81.125 331.242 75.938 326.051 69.539
 326.051 c h
69.539 326.051 m f
93.488 23.18 m 77.488 23.18 64.516 36.152 64.516 52.152 c 64.516 68.156
 77.488 81.125 93.488 81.125 c 192 81.125 l 192 23.18 l h
93.488 23.18 m f
0.996078 0.521569 0.4 rg
290.512 23.18 m 192 23.18 l 192 81.125 l 290.512 81.125 l 306.512 81.125
 319.484 68.156 319.484 52.152 c 319.484 36.152 306.512 23.18 290.512 23.18
 c h
290.512 23.18 m f
1 0.678431 0.517647 rg
261.539 0 m 192 173.844 l 243.207 173.844 284.715 132.332 284.715 81.125
 c 284.715 5.793 l 284.715 2.594 282.121 0 278.922 0 c h
261.539 0 m f
1 0.831373 0.631373 rg
261.539 81.125 m 261.539 0 l 105.078 0 l 101.879 0 99.285 2.594 99.285 
5.793 c 99.285 81.125 l 99.285 132.332 140.793 173.844 192 173.844 c 230.406
 173.844 261.539 132.332 261.539 81.125 c h
261.539 81.125 m f
0.678431 0.94902 0.960784 rg
242.199 63.781 m 232.156 46.387 l 224.145 32.52 209.168 23.18 192 23.18
 c 192 150.664 l 224.004 150.664 249.949 124.719 249.949 92.715 c 249.949
 82.172 247.117 72.297 242.199 63.781 c h
242.199 63.781 m f
0.839216 0.976471 0.980392 rg
226.77 92.715 m 226.77 82.172 225.07 72.297 222.117 63.781 c 216.094 46.387
 l 211.289 32.52 202.301 23.18 192 23.18 c 174.832 23.18 159.855 32.52 151.844
 46.387 c 141.801 63.781 l 136.883 72.297 134.051 82.172 134.051 92.715 
c 134.051 124.719 159.996 150.664 192 150.664 c 211.203 150.664 226.77 124.719
 226.77 92.715 c h
226.77 92.715 m f
0.513726 0.701961 0.945098 rg
215.18 104.305 m 215.18 117.105 204.801 127.484 192 127.484 c 179.199 127.484
 168.82 117.105 168.82 104.305 c 168.82 91.504 179.199 81.125 192 81.125
 c 204.801 81.125 215.18 91.504 215.18 104.305 c h
215.18 104.305 m f
0.678431 0.94902 0.960784 rg
197.793 46.359 m 197.793 49.559 195.199 52.152 192 52.152 c 188.801 52.152
 186.207 49.559 186.207 46.359 c 186.207 43.156 188.801 40.562 192 40.562
 c 195.199 40.562 197.793 43.156 197.793 46.359 c h
197.793 46.359 m f
0.513726 0.701961 0.945098 rg
180.41 220.203 m 192 243.379 l 203.59 220.203 l 203.59 197.023 l 192 173.844
 l 180.41 197.023 l h
180.41 220.203 m f
1 g
180.41 220.203 23.18 163.797 re f
0.596078 0.827451 0.952941 rg
192 104.305 m 185.598 104.305 180.41 109.496 180.41 115.895 c 180.41 197.023
 l 203.59 197.023 l 203.59 115.895 l 203.59 109.496 198.402 104.305 192 
104.305 c h
192 104.305 m f
Q Q
showpage
%%Trailer
end
%%EOF
