%!PS-Adobe-3.0 EPSF-3.0
%%Creator: cairo 1.16.0 (https://cairographics.org)
%%CreationDate: Tue Oct 20 13:20:33 2020
%%Pages: 1
%%DocumentData: Clean7Bit
%%LanguageLevel: 2
%%BoundingBox: 0 0 384 384
%%EndComments
%%BeginProlog
50 dict begin
/q { gsave } bind def
/Q { grestore } bind def
/cm { 6 array astore concat } bind def
/w { setlinewidth } bind def
/J { setlinecap } bind def
/j { setlinejoin } bind def
/M { setmiterlimit } bind def
/d { setdash } bind def
/m { moveto } bind def
/l { lineto } bind def
/c { curveto } bind def
/h { closepath } bind def
/re { exch dup neg 3 1 roll 5 3 roll moveto 0 rlineto
      0 exch rlineto 0 rlineto closepath } bind def
/S { stroke } bind def
/f { fill } bind def
/f* { eofill } bind def
/n { newpath } bind def
/W { clip } bind def
/W* { eoclip } bind def
/BT { } bind def
/ET { } bind def
/BDC { mark 3 1 roll /BDC pdfmark } bind def
/EMC { mark /EMC pdfmark } bind def
/cairo_store_point { /cairo_point_y exch def /cairo_point_x exch def } def
/Tj { show currentpoint cairo_store_point } bind def
/TJ {
  {
    dup
    type /stringtype eq
    { show } { -0.001 mul 0 cairo_font_matrix dtransform rmoveto } ifelse
  } forall
  currentpoint cairo_store_point
} bind def
/cairo_selectfont { cairo_font_matrix aload pop pop pop 0 0 6 array astore
    cairo_font exch selectfont cairo_point_x cairo_point_y moveto } bind def
/Tf { pop /cairo_font exch def /cairo_font_matrix where
      { pop cairo_selectfont } if } bind def
/Td { matrix translate cairo_font_matrix matrix concatmatrix dup
      /cairo_font_matrix exch def dup 4 get exch 5 get cairo_store_point
      /cairo_font where { pop cairo_selectfont } if } bind def
/Tm { 2 copy 8 2 roll 6 array astore /cairo_font_matrix exch def
      cairo_store_point /cairo_font where { pop cairo_selectfont } if } bind def
/g { setgray } bind def
/rg { setrgbcolor } bind def
/d1 { setcachedevice } bind def
/cairo_data_source {
  CairoDataIndex CairoData length lt
    { CairoData CairoDataIndex get /CairoDataIndex CairoDataIndex 1 add def }
    { () } ifelse
} def
/cairo_flush_ascii85_file { cairo_ascii85_file status { cairo_ascii85_file flushfile } if } def
/cairo_image { image cairo_flush_ascii85_file } def
/cairo_imagemask { imagemask cairo_flush_ascii85_file } def
%%EndProlog
%%BeginSetup
%%EndSetup
%%Page: 1 1
%%BeginPageSetup
%%PageBoundingBox: 0 0 384 384
%%EndPageSetup
q 0 0 384 384 rectclip
1 0 0 -1 0 384 cm q
0.996078 0.368627 0.286275 rg
122.855 23.18 138.289 11.59 re f
134.348 46.359 115.305 11.59 re f
122.855 174.617 138.293 11.59 re f
134.348 151.438 115.297 11.59 re f
134.348 220.973 115.305 11.59 re f
122.855 197.793 138.289 11.59 re f
134.348 326.051 115.293 11.59 re f
122.855 349.23 138.293 11.59 re f
0.678431 0.94902 0.960784 rg
360.82 168.82 m 360.82 159.219 353.039 151.438 343.438 151.438 c 333.836
 151.438 326.051 159.219 326.051 168.82 c 326.051 180.41 l 302.875 192 l
 326.051 203.59 l 326.051 215.18 l 326.051 224.781 333.836 232.562 343.438
 232.562 c 353.039 232.562 360.82 224.781 360.82 215.18 c 373.621 215.18
 384 204.801 384 192 c 384 179.199 373.621 168.82 360.82 168.82 c h
360.82 168.82 m f
0.839216 0.976471 0.980392 rg
23.18 168.82 m 23.18 159.219 30.961 151.438 40.562 151.438 c 50.164 151.438
 57.949 159.219 57.949 168.82 c 57.949 180.41 l 81.125 192 l 57.949 203.59
 l 57.949 215.18 l 57.949 224.781 50.164 232.562 40.562 232.562 c 30.961
 232.562 23.18 224.781 23.18 215.18 c 10.379 215.18 0 204.801 0 192 c 0 
179.199 10.379 168.82 23.18 168.82 c h
23.18 168.82 m f
0.996078 0.521569 0.4 rg
208.328 94.383 m 205.938 92.883 203.547 91.398 201.168 89.922 c 162.535
 65.934 139.074 49.082 139.074 17.383 c 139.074 7.785 131.293 0 121.691 
0 c 112.09 0 104.305 7.785 104.305 17.383 c 104.305 41.676 113.168 62.633
 131.395 81.453 c 144.199 94.676 159.941 105.145 175.672 115.004 c 181.047
 111.492 186.539 108.082 192 104.691 c 197.461 101.301 202.953 97.891 208.328
 94.383 c h
208.328 94.383 m f
1 0.678431 0.517647 rg
201.168 264.539 m 162.535 240.551 139.074 223.699 139.074 192 c 104.305
 192 l 104.305 216.293 113.168 237.25 131.395 256.07 c 144.199 269.293 159.941
 279.762 175.672 289.617 c 181.047 286.109 186.539 282.699 192 279.309 c
 197.461 275.918 202.953 272.508 208.328 268.996 c 205.938 267.5 203.547
 266.016 201.168 264.539 c h
201.168 264.539 m f
252.605 302.547 m 249.73 299.578 246.703 296.754 243.566 294.043 c 212.918
 294.043 l 212.918 314.066 l 233.285 329.34 244.926 344.297 244.926 366.617
 c 244.926 376.215 252.707 384 262.309 384 c 271.91 384 279.695 376.215 
279.695 366.617 c 279.695 342.324 270.832 321.367 252.605 302.547 c h
252.605 302.547 m f
0.988235 0.494118 0.286275 rg
208.328 268.996 m 202.953 272.508 197.461 275.918 192 279.309 c 186.539
 282.699 181.047 286.109 175.672 289.617 c 178.062 291.117 180.453 292.602
 182.832 294.078 c 194.266 301.176 204.355 307.648 212.918 314.07 c 213.078
 313.969 213.234 313.871 213.398 313.766 c 223.457 307.523 233.691 301.156
 243.566 294.043 c 232.727 284.664 220.527 276.645 208.328 268.996 c h
208.328 268.996 m f
0.996078 0.521569 0.4 rg
252.605 127.93 m 249.73 124.961 246.703 122.141 243.566 119.426 c 212.918
 119.426 l 212.918 139.453 l 233.285 154.723 244.926 169.684 244.926 192
 c 244.926 223.699 221.465 240.551 182.828 264.539 c 164.793 275.738 146.145
 287.316 131.395 302.547 c 113.168 321.367 104.305 342.324 104.305 366.617
 c 104.305 376.215 112.09 384 121.691 384 c 131.293 384 139.074 376.215 
139.074 366.617 c 139.074 334.918 162.535 318.066 201.172 294.078 c 219.207
 282.879 237.855 271.301 252.605 256.07 c 270.832 237.25 279.695 216.293
 279.695 192 c 279.695 167.707 270.832 146.75 252.605 127.93 c h
252.605 127.93 m f
0.996078 0.368627 0.286275 rg
243.566 119.426 m 232.727 110.047 220.527 102.027 208.328 94.383 c 202.953
 97.891 197.461 101.301 192 104.691 c 186.539 108.082 181.047 111.492 175.672
 115.004 c 178.062 116.5 180.453 117.984 182.832 119.461 c 194.266 126.562
 204.355 133.035 212.918 139.453 c 213.082 139.352 213.234 139.254 213.398
 139.152 c 223.457 132.906 233.691 126.543 243.566 119.426 c h
243.566 119.426 m f
1 0.678431 0.517647 rg
262.309 0 m 252.707 0 244.926 7.785 244.926 17.383 c 244.926 49.082 221.465
 65.934 182.828 89.922 c 164.793 101.121 146.145 112.699 131.395 127.93 
c 113.168 146.75 104.305 167.707 104.305 192 c 139.074 192 l 139.074 160.301
 162.535 143.449 201.172 119.461 c 219.207 108.262 237.855 96.684 252.605
 81.453 c 270.832 62.633 279.695 41.676 279.695 17.383 c 279.695 7.785 271.91
 0 262.309 0 c h
262.309 0 m f
Q Q
showpage
%%Trailer
end
%%EOF
