%!PS-Adobe-3.0 EPSF-3.0
%%Creator: cairo 1.16.0 (https://cairographics.org)
%%CreationDate: Tue Oct 20 13:20:34 2020
%%Pages: 1
%%DocumentData: Clean7Bit
%%LanguageLevel: 2
%%BoundingBox: 5 0 379 384
%%EndComments
%%BeginProlog
50 dict begin
/q { gsave } bind def
/Q { grestore } bind def
/cm { 6 array astore concat } bind def
/w { setlinewidth } bind def
/J { setlinecap } bind def
/j { setlinejoin } bind def
/M { setmiterlimit } bind def
/d { setdash } bind def
/m { moveto } bind def
/l { lineto } bind def
/c { curveto } bind def
/h { closepath } bind def
/re { exch dup neg 3 1 roll 5 3 roll moveto 0 rlineto
      0 exch rlineto 0 rlineto closepath } bind def
/S { stroke } bind def
/f { fill } bind def
/f* { eofill } bind def
/n { newpath } bind def
/W { clip } bind def
/W* { eoclip } bind def
/BT { } bind def
/ET { } bind def
/BDC { mark 3 1 roll /BDC pdfmark } bind def
/EMC { mark /EMC pdfmark } bind def
/cairo_store_point { /cairo_point_y exch def /cairo_point_x exch def } def
/Tj { show currentpoint cairo_store_point } bind def
/TJ {
  {
    dup
    type /stringtype eq
    { show } { -0.001 mul 0 cairo_font_matrix dtransform rmoveto } ifelse
  } forall
  currentpoint cairo_store_point
} bind def
/cairo_selectfont { cairo_font_matrix aload pop pop pop 0 0 6 array astore
    cairo_font exch selectfont cairo_point_x cairo_point_y moveto } bind def
/Tf { pop /cairo_font exch def /cairo_font_matrix where
      { pop cairo_selectfont } if } bind def
/Td { matrix translate cairo_font_matrix matrix concatmatrix dup
      /cairo_font_matrix exch def dup 4 get exch 5 get cairo_store_point
      /cairo_font where { pop cairo_selectfont } if } bind def
/Tm { 2 copy 8 2 roll 6 array astore /cairo_font_matrix exch def
      cairo_store_point /cairo_font where { pop cairo_selectfont } if } bind def
/g { setgray } bind def
/rg { setrgbcolor } bind def
/d1 { setcachedevice } bind def
/cairo_data_source {
  CairoDataIndex CairoData length lt
    { CairoData CairoDataIndex get /CairoDataIndex CairoDataIndex 1 add def }
    { () } ifelse
} def
/cairo_flush_ascii85_file { cairo_ascii85_file status { cairo_ascii85_file flushfile } if } def
/cairo_image { image cairo_flush_ascii85_file } def
/cairo_imagemask { imagemask cairo_flush_ascii85_file } def
%%EndProlog
%%BeginSetup
%%EndSetup
%%Page: 1 1
%%BeginPageSetup
%%PageBoundingBox: 5 0 379 384
%%EndPageSetup
q 5 0 374 384 rectclip
1 0 0 -1 0 384 cm q
0.513726 0.529412 0.54902 rg
372.75 78.75 m 350.625 78.75 332.625 96.75 332.625 118.875 c 332.625 140.625
 l 343.875 129.375 l 343.875 118.875 l 343.875 102.953 356.828 90 372.75
 90 c 375.855 90 378.375 87.48 378.375 84.375 c 378.375 81.27 375.855 78.75
 372.75 78.75 c h
372.75 78.75 m f
0.760784 0.768627 0.776471 rg
11.25 78.75 m 8.145 78.75 5.625 81.27 5.625 84.375 c 5.625 87.48 8.145 
90 11.25 90 c 27.172 90 40.125 102.953 40.125 118.875 c 40.125 129.375 l
 51.375 140.625 l 51.375 118.875 l 51.375 96.75 33.375 78.75 11.25 78.75
 c h
11.25 78.75 m f
147 0 m 100.477 0 62.625 37.852 62.625 84.375 c 62.625 87.48 65.145 90 
68.25 90 c 71.355 90 73.875 87.48 73.875 84.375 c 73.875 44.055 106.68 11.25
 147 11.25 c 150.105 11.25 152.625 8.73 152.625 5.625 c 152.625 2.52 150.105
 0 147 0 c h
147 0 m f
0.513726 0.529412 0.54902 rg
237 0 m 233.895 0 231.375 2.52 231.375 5.625 c 231.375 8.73 233.895 11.25
 237 11.25 c 277.32 11.25 310.125 44.055 310.125 84.375 c 310.125 87.48 
312.645 90 315.75 90 c 318.855 90 321.375 87.48 321.375 84.375 c 321.375
 37.852 283.523 0 237 0 c h
237 0 m f
0.760784 0.768627 0.776471 rg
116.922 320.312 m 89.562 296.754 73.875 262.562 73.875 226.5 c 73.875 219.375
 l 73.875 216.27 71.355 213.75 68.25 213.75 c 65.145 213.75 62.625 216.27
 62.625 219.375 c 62.625 226.5 l 62.625 265.84 79.738 303.141 109.578 328.836
 c 110.641 329.75 111.949 330.199 113.246 330.199 c 114.828 330.199 116.402
 329.535 117.512 328.242 c 119.539 325.891 119.273 322.336 116.922 320.312
 c h
116.922 320.312 m f
0.513726 0.529412 0.54902 rg
315.75 213.75 m 312.645 213.75 310.125 216.27 310.125 219.375 c 310.125
 226.5 l 310.125 262.562 294.438 296.754 267.078 320.312 c 264.727 322.34
 264.461 325.891 266.488 328.242 c 267.602 329.535 269.172 330.199 270.754
 330.199 c 272.055 330.199 273.359 329.75 274.422 328.836 c 304.262 303.141
 321.375 265.84 321.375 226.5 c 321.375 219.375 l 321.375 216.27 318.855
 213.75 315.75 213.75 c h
315.75 213.75 m f
0.760784 0.768627 0.776471 rg
158.25 50.625 m 158.25 73.125 l 180.75 73.125 l 180.75 28.125 l 168.375
 28.125 158.25 38.25 158.25 50.625 c h
158.25 50.625 m f
0.643137 0.65098 0.666667 rg
225.75 50.625 m 225.75 73.125 l 203.25 73.125 l 203.25 28.125 l 215.625
 28.125 225.75 38.25 225.75 50.625 c h
225.75 50.625 m f
0.760784 0.768627 0.776471 rg
214.5 61.875 m 192 61.875 l 192 106.875 l 237 106.875 l 237 84.375 l 237
 71.949 226.926 61.875 214.5 61.875 c h
214.5 61.875 m f
0.882353 0.882353 0.890196 rg
192 61.875 m 169.5 61.875 l 157.074 61.875 147 71.949 147 84.375 c 147 
106.875 l 214.5 106.875 l 214.5 84.375 l 214.5 71.949 204.426 61.875 192
 61.875 c h
192 61.875 m f
0.513726 0.529412 0.54902 rg
298.875 84.375 m 276.375 106.875 l 298.875 106.875 l 311.301 106.875 321.375
 96.801 321.375 84.375 c h
298.875 84.375 m f
0.643137 0.65098 0.666667 rg
298.875 84.375 m 192 84.375 l 192 106.875 l 276.375 106.875 l 288.801 106.875
 298.875 96.801 298.875 84.375 c h
298.875 84.375 m f
0.513726 0.529412 0.54902 rg
321.375 129.375 m 298.875 151.875 l 321.375 151.875 l 333.801 151.875 343.875
 141.801 343.875 129.375 c h
321.375 129.375 m f
0.643137 0.65098 0.666667 rg
321.375 129.375 m 192 129.375 l 192 151.875 l 298.875 151.875 l 311.301
 151.875 321.375 141.801 321.375 129.375 c h
321.375 129.375 m f
0.760784 0.768627 0.776471 rg
40.125 129.375 m 40.125 141.801 50.199 151.875 62.625 151.875 c 192 151.875
 l 192 129.375 l h
40.125 129.375 m f
62.625 84.375 m 62.625 96.801 72.699 106.875 85.125 106.875 c 192 106.875
 l 192 84.375 l h
62.625 84.375 m f
0.513726 0.529412 0.54902 rg
298.875 196.875 m 276.375 196.875 l 298.875 219.375 l 321.375 219.375 l
 321.375 206.949 311.301 196.875 298.875 196.875 c h
298.875 196.875 m f
0.760784 0.768627 0.776471 rg
85.125 196.875 m 72.699 196.875 62.625 206.949 62.625 219.375 c 192 219.375
 l 192 196.875 l h
85.125 196.875 m f
0.643137 0.65098 0.666667 rg
276.375 196.875 m 192 196.875 l 192 219.375 l 298.875 219.375 l 298.875
 206.949 288.801 196.875 276.375 196.875 c h
276.375 196.875 m f
0.513726 0.529412 0.54902 rg
192 84.375 m 192 288.375 l 238.598 288.375 276.375 250.598 276.375 204 
c 276.375 196.875 l 276.375 134.742 238.598 84.375 192 84.375 c h
192 84.375 m f
0.643137 0.65098 0.666667 rg
253.875 204 m 253.875 196.875 l 253.875 134.742 226.172 84.375 192 84.375
 c 145.402 84.375 107.625 134.742 107.625 196.875 c 107.625 204 l 107.625
 250.598 145.402 288.375 192 288.375 c 226.172 288.375 253.875 250.598 253.875
 204 c h
253.875 204 m f
0.513726 0.529412 0.54902 rg
169.5 202.5 m 166.395 202.5 163.875 199.98 163.875 196.875 c 163.875 185.625
 l 163.875 182.52 166.395 180 169.5 180 c 172.605 180 175.125 182.52 175.125
 185.625 c 175.125 196.875 l 175.125 199.98 172.605 202.5 169.5 202.5 c 
h
169.5 202.5 m f
214.5 202.5 m 211.395 202.5 208.875 199.98 208.875 196.875 c 208.875 185.625
 l 208.875 182.52 211.395 180 214.5 180 c 217.605 180 220.125 182.52 220.125
 185.625 c 220.125 196.875 l 220.125 199.98 217.605 202.5 214.5 202.5 c 
h
214.5 202.5 m f
192 236.25 m 188.895 236.25 186.375 233.73 186.375 230.625 c 186.375 219.375
 l 186.375 216.27 188.895 213.75 192 213.75 c 195.105 213.75 197.625 216.27
 197.625 219.375 c 197.625 230.625 l 197.625 233.73 195.105 236.25 192 236.25
 c h
192 236.25 m f
0.384314 0.403922 0.435294 rg
214.5 384 m 211.395 384 208.875 381.48 208.875 378.375 c 208.875 261.637
 l 208.875 258.531 211.395 256.012 214.5 256.012 c 217.605 256.012 220.125
 258.531 220.125 261.637 c 220.125 378.375 l 220.125 381.48 217.605 384 
214.5 384 c h
214.5 384 m f
0.513726 0.529412 0.54902 rg
169.5 384 m 166.395 384 163.875 381.48 163.875 378.375 c 163.875 261.637
 l 163.875 258.531 166.395 256.012 169.5 256.012 c 172.605 256.012 175.125
 258.531 175.125 261.637 c 175.125 378.375 l 175.125 381.48 172.605 384 
169.5 384 c h
169.5 384 m f
0.384314 0.403922 0.435294 rg
237 384 m 233.895 384 231.375 381.48 231.375 378.375 c 231.375 246.441 
l 231.375 243.336 233.895 240.816 237 240.816 c 240.105 240.816 242.625 
243.336 242.625 246.441 c 242.625 378.375 l 242.625 381.48 240.105 384 237
 384 c h
237 384 m f
0.513726 0.529412 0.54902 rg
147 384 m 143.895 384 141.375 381.48 141.375 378.375 c 141.375 246.441 
l 141.375 243.336 143.895 240.816 147 240.816 c 150.105 240.816 152.625 
243.336 152.625 246.441 c 152.625 378.375 l 152.625 381.48 150.105 384 147
 384 c h
147 384 m f
Q Q
showpage
%%Trailer
end
%%EOF
