%!PS-Adobe-3.0 EPSF-3.0
%%Creator: cairo 1.16.0 (https://cairographics.org)
%%CreationDate: Tue Oct 20 13:20:35 2020
%%Pages: 1
%%DocumentData: Clean7Bit
%%LanguageLevel: 2
%%BoundingBox: 2 0 382 384
%%EndComments
%%BeginProlog
50 dict begin
/q { gsave } bind def
/Q { grestore } bind def
/cm { 6 array astore concat } bind def
/w { setlinewidth } bind def
/J { setlinecap } bind def
/j { setlinejoin } bind def
/M { setmiterlimit } bind def
/d { setdash } bind def
/m { moveto } bind def
/l { lineto } bind def
/c { curveto } bind def
/h { closepath } bind def
/re { exch dup neg 3 1 roll 5 3 roll moveto 0 rlineto
      0 exch rlineto 0 rlineto closepath } bind def
/S { stroke } bind def
/f { fill } bind def
/f* { eofill } bind def
/n { newpath } bind def
/W { clip } bind def
/W* { eoclip } bind def
/BT { } bind def
/ET { } bind def
/BDC { mark 3 1 roll /BDC pdfmark } bind def
/EMC { mark /EMC pdfmark } bind def
/cairo_store_point { /cairo_point_y exch def /cairo_point_x exch def } def
/Tj { show currentpoint cairo_store_point } bind def
/TJ {
  {
    dup
    type /stringtype eq
    { show } { -0.001 mul 0 cairo_font_matrix dtransform rmoveto } ifelse
  } forall
  currentpoint cairo_store_point
} bind def
/cairo_selectfont { cairo_font_matrix aload pop pop pop 0 0 6 array astore
    cairo_font exch selectfont cairo_point_x cairo_point_y moveto } bind def
/Tf { pop /cairo_font exch def /cairo_font_matrix where
      { pop cairo_selectfont } if } bind def
/Td { matrix translate cairo_font_matrix matrix concatmatrix dup
      /cairo_font_matrix exch def dup 4 get exch 5 get cairo_store_point
      /cairo_font where { pop cairo_selectfont } if } bind def
/Tm { 2 copy 8 2 roll 6 array astore /cairo_font_matrix exch def
      cairo_store_point /cairo_font where { pop cairo_selectfont } if } bind def
/g { setgray } bind def
/rg { setrgbcolor } bind def
/d1 { setcachedevice } bind def
/cairo_data_source {
  CairoDataIndex CairoData length lt
    { CairoData CairoDataIndex get /CairoDataIndex CairoDataIndex 1 add def }
    { () } ifelse
} def
/cairo_flush_ascii85_file { cairo_ascii85_file status { cairo_ascii85_file flushfile } if } def
/cairo_image { image cairo_flush_ascii85_file } def
/cairo_imagemask { imagemask cairo_flush_ascii85_file } def
%%EndProlog
%%BeginSetup
%%EndSetup
%%Page: 1 1
%%BeginPageSetup
%%PageBoundingBox: 2 0 382 384
%%EndPageSetup
q 2 0 380 384 rectclip
1 0 0 -1 0 384 cm q
1 0.831373 0.631373 rg
2.855 28.543 m 2.855 199.801 l 105.609 178.488 l h
2.855 28.543 m f
0.968627 0.745098 0.282353 rg
105.609 67.109 m 40.559 11.227 l 36.566 7.789 31.371 5.707 25.688 5.707
 c 13.078 5.707 2.855 15.93 2.855 28.543 c 2.855 110.516 69.305 176.969 
151.277 176.969 c h
105.609 67.109 m f
1 0.831373 0.631373 rg
381.145 28.543 m 381.145 199.801 l 278.391 178.488 l h
381.145 28.543 m f
0.976471 0.619608 0.286275 rg
278.391 67.109 m 343.441 11.227 l 347.438 7.789 352.629 5.707 358.312 5.707
 c 370.922 5.707 381.145 15.93 381.145 28.543 c 381.145 110.516 314.695 
176.969 232.723 176.969 c h
278.391 67.109 m f
0.988235 0.494118 0.286275 rg
244.141 62.793 m 221.305 62.793 l 192 384 l 205.152 384 217.723 381.527
 229.281 377.023 c 293.848 351.863 l 344.938 331.961 381.145 282.289 381.145
 224.16 c 381.145 199.801 l 381.145 124.137 319.805 62.793 244.141 62.793
 c h
244.141 62.793 m f
0.976471 0.619608 0.286275 rg
281.551 351.863 m 326.477 331.961 358.312 282.289 358.312 224.16 c 358.312
 199.801 l 358.312 124.137 296.973 62.793 221.305 62.793 c 139.859 62.793
 l 64.195 62.793 2.855 124.137 2.855 199.801 c 2.855 224.16 l 2.855 282.289
 39.062 331.961 90.152 351.863 c 154.719 377.023 l 166.277 381.523 178.852
 384 192 384 c 203.562 384 214.617 381.523 224.781 377.023 c h
281.551 351.863 m f
1 0.831373 0.631373 rg
192 292.66 m 192 311.578 176.664 326.914 157.75 326.914 c 157.75 345.832
 173.082 361.164 192 361.164 c 210.918 361.164 226.25 345.832 226.25 326.914
 c 207.336 326.914 192 311.578 192 292.66 c h
192 292.66 m f
0.956863 0.870588 0.282353 rg
89.246 199.039 m 76.633 199.039 66.41 209.262 66.41 221.875 c 66.41 234.484
 76.633 244.707 89.246 244.707 c 134.914 244.707 l 134.914 219.488 114.469
 199.039 89.246 199.039 c h
89.246 199.039 m f
0.968627 0.745098 0.282353 rg
294.754 199.039 m 290.07 199.039 285.555 199.746 281.301 201.059 c 271.922
 244.707 l 294.754 244.707 l 307.367 244.707 317.59 234.484 317.59 221.875
 c 317.59 209.262 307.367 199.039 294.754 199.039 c h
294.754 199.039 m f
0.956863 0.870588 0.282353 rg
294.754 221.875 m 294.754 212.609 289.23 204.637 281.301 201.059 c 262.648
 206.801 249.086 224.168 249.086 244.707 c 271.922 244.707 l 284.531 244.707
 294.754 234.484 294.754 221.875 c h
294.754 221.875 m f
0.988235 0.494118 0.286275 rg
226.25 321.207 m 210.512 321.207 197.707 308.402 197.707 292.66 c 197.707
 281.246 l 186.293 281.246 l 186.293 292.66 l 186.293 308.402 173.488 321.207
 157.75 321.207 c 154.594 321.207 152.039 323.762 152.039 326.914 c 152.039
 330.066 154.594 332.621 157.75 332.621 c 172.266 332.621 185 324.84 192
 313.227 c 199 324.84 211.734 332.621 226.25 332.621 c 229.406 332.621 231.961
 330.066 231.961 326.914 c 231.961 323.762 229.406 321.207 226.25 321.207
 c h
226.25 321.207 m f
0.956863 0.870588 0.282353 rg
192 22.836 m 188.848 22.836 186.293 20.277 186.293 17.125 c 186.293 5.707
 l 186.293 2.555 188.848 0 192 0 c 195.152 0 197.707 2.555 197.707 5.707
 c 197.707 17.125 l 197.707 20.277 195.152 22.836 192 22.836 c h
192 22.836 m f
165.547 22.684 m 159.836 12.797 l 158.262 10.066 154.77 9.133 152.039 10.707
 c 149.309 12.285 148.375 15.777 149.949 18.504 c 155.66 28.395 l 157.234
 31.125 160.727 32.059 163.457 30.484 c 166.188 28.906 167.121 25.414 165.547
 22.684 c h
165.547 22.684 m f
218.453 22.684 m 224.164 12.797 l 225.738 10.066 229.23 9.133 231.961 10.707
 c 234.691 12.285 235.625 15.777 234.051 18.504 c 228.34 28.395 l 226.766
 31.125 223.273 32.059 220.543 30.484 c 217.812 28.906 216.879 25.414 218.453
 22.684 c h
218.453 22.684 m f
0.988235 0.494118 0.286275 rg
169.164 181.914 m 166.012 181.914 163.457 179.359 163.457 176.207 c 163.457
 164.789 l 163.457 161.637 166.012 159.082 169.164 159.082 c 172.316 159.082
 174.875 161.637 174.875 164.789 c 174.875 176.207 l 174.875 179.359 172.316
 181.914 169.164 181.914 c h
169.164 181.914 m f
214.836 181.914 m 211.684 181.914 209.125 179.359 209.125 176.207 c 209.125
 164.789 l 209.125 161.637 211.684 159.082 214.836 159.082 c 217.988 159.082
 220.543 161.637 220.543 164.789 c 220.543 176.207 l 220.543 179.359 217.988
 181.914 214.836 181.914 c h
214.836 181.914 m f
192 216.168 m 188.848 216.168 186.293 213.609 186.293 210.457 c 186.293
 199.039 l 186.293 195.887 188.848 193.332 192 193.332 c 195.152 193.332
 197.707 195.887 197.707 199.039 c 197.707 210.457 l 197.707 213.609 195.152
 216.168 192 216.168 c h
192 216.168 m f
0.996078 0.368627 0.286275 rg
205.32 266.023 m 178.68 266.023 l 170.273 266.023 163.457 272.836 163.457
 281.246 c 181.93 290.32 l 188.281 293.441 195.719 293.441 202.074 290.32
 c 220.543 281.246 l 220.543 272.836 213.727 266.023 205.32 266.023 c h
205.32 266.023 m f
Q Q
showpage
%%Trailer
end
%%EOF
