%!PS-Adobe-3.0 EPSF-3.0
%%Creator: cairo 1.16.0 (https://cairographics.org)
%%CreationDate: Tue Oct 20 13:20:37 2020
%%Pages: 1
%%DocumentData: Clean7Bit
%%LanguageLevel: 2
%%BoundingBox: 0 18 384 366
%%EndComments
%%BeginProlog
50 dict begin
/q { gsave } bind def
/Q { grestore } bind def
/cm { 6 array astore concat } bind def
/w { setlinewidth } bind def
/J { setlinecap } bind def
/j { setlinejoin } bind def
/M { setmiterlimit } bind def
/d { setdash } bind def
/m { moveto } bind def
/l { lineto } bind def
/c { curveto } bind def
/h { closepath } bind def
/re { exch dup neg 3 1 roll 5 3 roll moveto 0 rlineto
      0 exch rlineto 0 rlineto closepath } bind def
/S { stroke } bind def
/f { fill } bind def
/f* { eofill } bind def
/n { newpath } bind def
/W { clip } bind def
/W* { eoclip } bind def
/BT { } bind def
/ET { } bind def
/BDC { mark 3 1 roll /BDC pdfmark } bind def
/EMC { mark /EMC pdfmark } bind def
/cairo_store_point { /cairo_point_y exch def /cairo_point_x exch def } def
/Tj { show currentpoint cairo_store_point } bind def
/TJ {
  {
    dup
    type /stringtype eq
    { show } { -0.001 mul 0 cairo_font_matrix dtransform rmoveto } ifelse
  } forall
  currentpoint cairo_store_point
} bind def
/cairo_selectfont { cairo_font_matrix aload pop pop pop 0 0 6 array astore
    cairo_font exch selectfont cairo_point_x cairo_point_y moveto } bind def
/Tf { pop /cairo_font exch def /cairo_font_matrix where
      { pop cairo_selectfont } if } bind def
/Td { matrix translate cairo_font_matrix matrix concatmatrix dup
      /cairo_font_matrix exch def dup 4 get exch 5 get cairo_store_point
      /cairo_font where { pop cairo_selectfont } if } bind def
/Tm { 2 copy 8 2 roll 6 array astore /cairo_font_matrix exch def
      cairo_store_point /cairo_font where { pop cairo_selectfont } if } bind def
/g { setgray } bind def
/rg { setrgbcolor } bind def
/d1 { setcachedevice } bind def
/cairo_data_source {
  CairoDataIndex CairoData length lt
    { CairoData CairoDataIndex get /CairoDataIndex CairoDataIndex 1 add def }
    { () } ifelse
} def
/cairo_flush_ascii85_file { cairo_ascii85_file status { cairo_ascii85_file flushfile } if } def
/cairo_image { image cairo_flush_ascii85_file } def
/cairo_imagemask { imagemask cairo_flush_ascii85_file } def
%%EndProlog
%%BeginSetup
%%EndSetup
%%Page: 1 1
%%BeginPageSetup
%%PageBoundingBox: 0 18 384 366
%%EndPageSetup
q 0 18 384 348 rectclip
1 0 0 -1 0 384 cm q
0.996078 0.368627 0.286275 rg
360.82 296.305 m 326.051 331.074 l 360.82 365.844 l 378.207 365.844 l 381.406
 365.844 384 363.25 384 360.047 c 384 302.102 l 384 298.898 381.406 296.305
 378.207 296.305 c h
360.82 296.305 m f
0.996078 0.521569 0.4 rg
226.77 296.305 m 180.41 331.074 l 226.77 365.844 l 360.82 365.844 l 360.82
 296.305 l h
226.77 296.305 m f
0.513726 0.529412 0.54902 rg
11.59 296.305 m 5.188 296.305 0 301.496 0 307.895 c 0 310.867 1.129 313.57
 2.969 315.621 c 1.129 317.672 0 320.375 0 323.348 c 0 326.32 1.129 329.023
 2.969 331.074 c 1.129 333.125 0 335.828 0 338.801 c 0 341.773 1.129 344.477
 2.969 346.527 c 1.129 348.578 0 351.281 0 354.254 c 0 360.652 5.188 365.844
 11.59 365.844 c 34.77 365.844 l 34.77 296.305 l h
11.59 296.305 m f
0.384314 0.403922 0.435294 rg
46.359 296.305 m 34.77 296.305 l 28.367 296.305 23.18 301.496 23.18 307.895
 c 23.18 310.867 24.309 313.57 26.148 315.621 c 24.309 317.672 23.18 320.375
 23.18 323.348 c 23.18 326.32 24.309 329.023 26.148 331.074 c 24.309 333.125
 23.18 335.828 23.18 338.801 c 23.18 341.773 24.309 344.477 26.148 346.527
 c 24.309 348.578 23.18 351.281 23.18 354.254 c 23.18 360.652 28.367 365.844
 34.77 365.844 c 46.359 365.844 l 69.539 331.074 l h
46.359 296.305 m f
1 0.984314 0.745098 rg
46.359 296.305 180.41 69.539 re f
0.760784 0.768627 0.776471 rg
360.82 76.105 m 291.285 110.875 l 291.285 145.641 l 314.461 145.641 l 333.664
 145.641 349.23 130.074 349.23 110.875 c 366.09 110.875 380.148 98.871 383.328
 82.949 c 384.035 79.398 381.246 76.105 377.625 76.105 c h
360.82 76.105 m f
0.882353 0.882353 0.890196 rg
326.051 110.875 m 345.254 110.875 360.82 95.309 360.82 76.105 c 314.461
 76.105 l 295.262 76.105 279.695 91.672 279.695 110.875 c 226.77 110.875
 l 209.91 110.875 195.852 122.875 192.672 138.797 c 191.965 142.348 194.754
 145.641 198.375 145.641 c 291.285 145.641 l 310.484 145.641 326.051 130.074
 326.051 110.875 c h
326.051 110.875 m f
0.760784 0.768627 0.776471 rg
360.82 168.82 m 291.285 203.59 l 291.285 238.359 l 314.461 238.359 l 333.664
 238.359 349.23 222.793 349.23 203.59 c 366.09 203.59 380.148 191.59 383.328
 175.664 c 384.035 172.113 381.246 168.82 377.625 168.82 c h
360.82 168.82 m f
0.882353 0.882353 0.890196 rg
326.051 203.59 m 345.254 203.59 360.82 188.023 360.82 168.82 c 104.305 
168.82 l 85.105 168.82 69.539 184.387 69.539 203.59 c 50.336 203.59 34.77
 219.156 34.77 238.359 c 17.91 238.359 3.852 250.359 0.672 266.285 c -0.035
 269.832 2.754 273.125 6.375 273.125 c 46.359 273.125 l 65.559 273.125 81.125
 257.559 81.125 238.359 c 291.285 238.359 l 310.484 238.359 326.051 222.793
 326.051 203.59 c h
326.051 203.59 m f
0.760784 0.768627 0.776471 rg
360.82 18.156 m 326.051 52.926 l 349.23 52.926 l 366.09 52.926 380.148 
40.926 383.328 25 c 384.035 21.449 381.246 18.156 377.625 18.156 c h
360.82 18.156 m f
0.882353 0.882353 0.890196 rg
349.23 18.156 m 332.371 18.156 318.312 30.156 315.137 46.082 c 314.426 
49.633 317.219 52.926 320.836 52.926 c 326.051 52.926 l 345.254 52.926 360.82
 37.359 360.82 18.156 c h
349.23 18.156 m f
Q Q
showpage
%%Trailer
end
%%EOF
