%!PS-Adobe-3.0 EPSF-3.0
%%Creator: cairo 1.16.0 (https://cairographics.org)
%%CreationDate: Tue Oct 20 13:20:38 2020
%%Pages: 1
%%DocumentData: Clean7Bit
%%LanguageLevel: 2
%%BoundingBox: 0 0 384 384
%%EndComments
%%BeginProlog
50 dict begin
/q { gsave } bind def
/Q { grestore } bind def
/cm { 6 array astore concat } bind def
/w { setlinewidth } bind def
/J { setlinecap } bind def
/j { setlinejoin } bind def
/M { setmiterlimit } bind def
/d { setdash } bind def
/m { moveto } bind def
/l { lineto } bind def
/c { curveto } bind def
/h { closepath } bind def
/re { exch dup neg 3 1 roll 5 3 roll moveto 0 rlineto
      0 exch rlineto 0 rlineto closepath } bind def
/S { stroke } bind def
/f { fill } bind def
/f* { eofill } bind def
/n { newpath } bind def
/W { clip } bind def
/W* { eoclip } bind def
/BT { } bind def
/ET { } bind def
/BDC { mark 3 1 roll /BDC pdfmark } bind def
/EMC { mark /EMC pdfmark } bind def
/cairo_store_point { /cairo_point_y exch def /cairo_point_x exch def } def
/Tj { show currentpoint cairo_store_point } bind def
/TJ {
  {
    dup
    type /stringtype eq
    { show } { -0.001 mul 0 cairo_font_matrix dtransform rmoveto } ifelse
  } forall
  currentpoint cairo_store_point
} bind def
/cairo_selectfont { cairo_font_matrix aload pop pop pop 0 0 6 array astore
    cairo_font exch selectfont cairo_point_x cairo_point_y moveto } bind def
/Tf { pop /cairo_font exch def /cairo_font_matrix where
      { pop cairo_selectfont } if } bind def
/Td { matrix translate cairo_font_matrix matrix concatmatrix dup
      /cairo_font_matrix exch def dup 4 get exch 5 get cairo_store_point
      /cairo_font where { pop cairo_selectfont } if } bind def
/Tm { 2 copy 8 2 roll 6 array astore /cairo_font_matrix exch def
      cairo_store_point /cairo_font where { pop cairo_selectfont } if } bind def
/g { setgray } bind def
/rg { setrgbcolor } bind def
/d1 { setcachedevice } bind def
/cairo_data_source {
  CairoDataIndex CairoData length lt
    { CairoData CairoDataIndex get /CairoDataIndex CairoDataIndex 1 add def }
    { () } ifelse
} def
/cairo_flush_ascii85_file { cairo_ascii85_file status { cairo_ascii85_file flushfile } if } def
/cairo_image { image cairo_flush_ascii85_file } def
/cairo_imagemask { imagemask cairo_flush_ascii85_file } def
%%EndProlog
%%BeginSetup
%%EndSetup
%%Page: 1 1
%%BeginPageSetup
%%PageBoundingBox: 0 0 384 384
%%EndPageSetup
q 0 0 384 384 rectclip
1 0 0 -1 0 384 cm q
0.572549 0.545098 1 rg
208.898 0 m 175.102 0 l 168.434 0 163.027 5.406 163.027 12.074 c 163.027
 15.23 164.262 18.262 166.469 20.516 c 180.41 34.77 l 203.59 34.77 l 217.531
 20.516 l 219.738 18.262 220.973 15.23 220.973 12.074 c 220.973 5.406 215.566
 0 208.898 0 c h
208.898 0 m f
0.513726 0.701961 0.945098 rg
180.41 34.77 m 180.41 99.859 l 203.59 99.859 l 203.59 34.77 l 203.59 28.367
 198.402 23.18 192 23.18 c 185.598 23.18 180.41 28.367 180.41 34.77 c h
180.41 34.77 m f
0.596078 0.827451 0.952941 rg
128.586 69.195 m 153.496 129.328 l 174.91 120.461 l 150 60.324 l 147.551
 54.41 140.773 51.602 134.859 54.051 c 128.945 56.5 126.137 63.281 128.586
 69.195 c h
128.586 69.195 m f
0.572549 0.545098 1 rg
68.184 44.285 m 44.285 68.184 l 39.57 72.902 39.57 80.547 44.285 85.262
 c 46.52 87.492 49.535 88.762 52.691 88.797 c 72.625 89.016 l 89.016 72.625
 l 88.797 52.691 l 88.762 49.535 87.492 46.516 85.262 44.285 c 80.547 39.57
 72.902 39.57 68.184 44.285 c h
68.184 44.285 m f
0.513726 0.701961 0.945098 rg
72.625 89.016 m 118.652 135.043 l 135.043 118.652 l 89.016 72.625 l 84.488
 68.098 77.152 68.098 72.625 72.625 c 68.098 77.152 68.098 84.488 72.625
 89.016 c h
72.625 89.016 m f
0.596078 0.827451 0.952941 rg
60.324 150.004 m 120.461 174.91 l 129.328 153.496 l 69.195 128.59 l 63.281
 126.141 56.5 128.945 54.051 134.859 c 51.602 140.773 54.41 147.551 60.324
 150.004 c h
60.324 150.004 m f
0.572549 0.545098 1 rg
0 175.102 m 0 208.898 l 0 215.566 5.406 220.973 12.074 220.973 c 15.23 
220.973 18.262 219.738 20.516 217.531 c 34.77 203.59 l 34.77 180.41 l 20.516
 166.469 l 18.262 164.262 15.23 163.027 12.074 163.027 c 5.406 163.027 0
 168.434 0 175.102 c h
0 175.102 m f
0.513726 0.701961 0.945098 rg
34.77 203.59 m 99.859 203.59 l 99.859 180.41 l 34.77 180.41 l 28.367 180.41
 23.18 185.598 23.18 192 c 23.18 198.402 28.367 203.59 34.77 203.59 c h
34.77 203.59 m f
0.596078 0.827451 0.952941 rg
69.195 255.414 m 129.328 230.504 l 120.461 209.09 l 60.324 234 l 54.41 
236.449 51.602 243.227 54.051 249.141 c 56.5 255.055 63.281 257.863 69.195
 255.414 c h
69.195 255.414 m f
0.572549 0.545098 1 rg
44.285 315.816 m 68.188 339.715 l 72.902 344.43 80.547 344.43 85.262 339.715
 c 87.492 337.484 88.762 334.465 88.797 331.309 c 89.016 311.375 l 72.625
 294.984 l 52.691 295.203 l 49.535 295.238 46.516 296.508 44.285 298.738
 c 39.57 303.453 39.57 311.098 44.285 315.816 c h
44.285 315.816 m f
0.513726 0.701961 0.945098 rg
89.016 311.375 m 135.043 265.348 l 118.652 248.957 l 72.625 294.984 l 68.098
 299.512 68.098 306.848 72.625 311.375 c 77.152 315.902 84.488 315.902 89.016
 311.375 c h
89.016 311.375 m f
0.596078 0.827451 0.952941 rg
150.004 323.676 m 174.91 263.539 l 153.496 254.672 l 128.59 314.805 l 126.141
 320.719 128.945 327.5 134.859 329.949 c 140.773 332.398 147.551 329.59 
150.004 323.676 c h
150.004 323.676 m f
0.572549 0.545098 1 rg
175.102 384 m 208.898 384 l 215.566 384 220.973 378.594 220.973 371.926
 c 220.973 368.77 219.738 365.738 217.531 363.484 c 203.59 349.23 l 180.41
 349.23 l 166.469 363.484 l 164.262 365.738 163.027 368.77 163.027 371.926
 c 163.027 378.594 168.434 384 175.102 384 c h
175.102 384 m f
0.513726 0.701961 0.945098 rg
203.59 349.23 m 203.59 284.141 l 180.41 284.141 l 180.41 349.23 l 180.41
 355.633 185.598 360.82 192 360.82 c 198.402 360.82 203.59 355.633 203.59
 349.23 c h
203.59 349.23 m f
0.596078 0.827451 0.952941 rg
255.414 314.805 m 230.504 254.672 l 209.09 263.539 l 234 323.676 l 236.449
 329.59 243.227 332.398 249.141 329.949 c 255.055 327.5 257.863 320.719 
255.414 314.805 c h
255.414 314.805 m f
0.572549 0.545098 1 rg
315.816 339.715 m 339.715 315.812 l 344.43 311.098 344.43 303.453 339.715
 298.738 c 337.484 296.508 334.465 295.238 331.309 295.203 c 311.375 294.984
 l 294.984 311.375 l 295.203 331.309 l 295.238 334.465 296.508 337.48 298.738
 339.715 c 303.453 344.43 311.098 344.43 315.816 339.715 c h
315.816 339.715 m f
0.513726 0.701961 0.945098 rg
311.375 294.984 m 265.348 248.957 l 248.957 265.348 l 294.984 311.375 l
 299.512 315.902 306.848 315.902 311.375 311.375 c 315.902 306.848 315.902
 299.512 311.375 294.984 c h
311.375 294.984 m f
0.596078 0.827451 0.952941 rg
323.676 233.996 m 263.539 209.09 l 254.672 230.504 l 314.805 255.41 l 320.719
 257.859 327.5 255.055 329.949 249.141 c 332.398 243.227 329.59 236.449 
323.676 233.996 c h
323.676 233.996 m f
0.572549 0.545098 1 rg
384 208.898 m 384 175.102 l 384 168.434 378.594 163.027 371.926 163.027
 c 368.77 163.027 365.738 164.262 363.484 166.469 c 349.23 180.41 l 349.23
 203.59 l 363.484 217.531 l 365.738 219.738 368.77 220.973 371.926 220.973
 c 378.594 220.973 384 215.566 384 208.898 c h
384 208.898 m f
0.513726 0.701961 0.945098 rg
349.23 180.41 m 284.141 180.41 l 284.141 203.59 l 349.23 203.59 l 355.633
 203.59 360.82 198.402 360.82 192 c 360.82 185.598 355.633 180.41 349.23
 180.41 c h
349.23 180.41 m f
0.596078 0.827451 0.952941 rg
314.805 128.586 m 254.672 153.496 l 263.539 174.91 l 323.676 150 l 329.59
 147.551 332.398 140.773 329.949 134.859 c 327.5 128.945 320.719 126.137
 314.805 128.586 c h
314.805 128.586 m f
0.572549 0.545098 1 rg
339.715 68.184 m 315.816 44.285 l 311.098 39.57 303.453 39.57 298.738 44.285
 c 296.508 46.52 295.238 49.535 295.203 52.691 c 294.984 72.625 l 311.375
 89.016 l 331.309 88.797 l 334.465 88.762 337.484 87.492 339.715 85.262 
c 344.43 80.547 344.43 72.902 339.715 68.184 c h
339.715 68.184 m f
0.513726 0.701961 0.945098 rg
294.984 72.625 m 248.957 118.652 l 265.348 135.043 l 311.375 89.016 l 315.902
 84.488 315.902 77.152 311.375 72.625 c 306.848 68.098 299.512 68.098 294.984
 72.625 c h
294.984 72.625 m f
0.596078 0.827451 0.952941 rg
233.996 60.324 m 209.09 120.461 l 230.504 129.328 l 255.41 69.195 l 257.859
 63.281 255.055 56.5 249.141 54.051 c 243.227 51.602 236.449 54.41 233.996
 60.324 c h
233.996 60.324 m f
0.513726 0.701961 0.945098 rg
307.895 192 m 307.895 256.008 256.008 307.895 192 307.895 c 127.992 307.895
 76.105 256.008 76.105 192 c 76.105 127.992 127.992 76.105 192 76.105 c 
256.008 76.105 307.895 127.992 307.895 192 c h
307.895 192 m f
0.45098 0.427451 0.85098 rg
192 99.285 m 192 284.715 l 243.207 284.715 284.715 243.207 284.715 192 
c 284.715 140.793 243.207 99.285 192 99.285 c h
192 99.285 m f
0.572549 0.545098 1 rg
261.539 192 m 261.539 140.793 230.406 99.285 192 99.285 c 140.793 99.285
 99.285 140.793 99.285 192 c 99.285 243.207 140.793 284.715 192 284.715 
c 230.406 284.715 261.539 243.207 261.539 192 c h
261.539 192 m f
0.45098 0.427451 0.85098 rg
203.59 192 m 203.59 198.402 198.402 203.59 192 203.59 c 185.598 203.59 
180.41 198.402 180.41 192 c 180.41 185.598 185.598 180.41 192 180.41 c 198.402
 180.41 203.59 185.598 203.59 192 c h
203.59 192 m f
145.641 192 m 145.641 198.402 140.453 203.59 134.051 203.59 c 127.652 203.59
 122.461 198.402 122.461 192 c 122.461 185.598 127.652 180.41 134.051 180.41
 c 140.453 180.41 145.641 185.598 145.641 192 c h
145.641 192 m f
203.59 134.051 m 203.59 140.453 198.402 145.641 192 145.641 c 185.598 145.641
 180.41 140.453 180.41 134.051 c 180.41 127.652 185.598 122.461 192 122.461
 c 198.402 122.461 203.59 127.652 203.59 134.051 c h
203.59 134.051 m f
203.59 249.949 m 203.59 256.348 198.402 261.539 192 261.539 c 185.598 261.539
 180.41 256.348 180.41 249.949 c 180.41 243.547 185.598 238.359 192 238.359
 c 198.402 238.359 203.59 243.547 203.59 249.949 c h
203.59 249.949 m f
165.016 224.781 m 165.016 227.98 162.422 230.574 159.219 230.574 c 156.02
 230.574 153.426 227.98 153.426 224.781 c 153.426 221.578 156.02 218.984
 159.219 218.984 c 162.422 218.984 165.016 221.578 165.016 224.781 c h
165.016 224.781 m f
0.333333 0.309804 0.698039 rg
230.574 224.781 m 230.574 227.98 227.98 230.574 224.781 230.574 c 221.578
 230.574 218.984 227.98 218.984 224.781 c 218.984 221.578 221.578 218.984
 224.781 218.984 c 227.98 218.984 230.574 221.578 230.574 224.781 c h
230.574 224.781 m f
0.45098 0.427451 0.85098 rg
244.152 192 m 244.152 195.199 241.559 197.793 238.359 197.793 c 235.156
 197.793 232.562 195.199 232.562 192 c 232.562 188.801 235.156 186.207 238.359
 186.207 c 241.559 186.207 244.152 188.801 244.152 192 c h
244.152 192 m f
0.333333 0.309804 0.698039 rg
165.016 159.219 m 165.016 162.422 162.422 165.016 159.219 165.016 c 156.02
 165.016 153.426 162.422 153.426 159.219 c 153.426 156.02 156.02 153.426
 159.219 153.426 c 162.422 153.426 165.016 156.02 165.016 159.219 c h
165.016 159.219 m f
Q Q
showpage
%%Trailer
end
%%EOF
