%!PS-Adobe-3.0 EPSF-3.0
%%Creator: cairo 1.16.0 (https://cairographics.org)
%%CreationDate: Tue Oct 20 13:20:39 2020
%%Pages: 1
%%DocumentData: Clean7Bit
%%LanguageLevel: 2
%%BoundingBox: 52 0 332 384
%%EndComments
%%BeginProlog
50 dict begin
/q { gsave } bind def
/Q { grestore } bind def
/cm { 6 array astore concat } bind def
/w { setlinewidth } bind def
/J { setlinecap } bind def
/j { setlinejoin } bind def
/M { setmiterlimit } bind def
/d { setdash } bind def
/m { moveto } bind def
/l { lineto } bind def
/c { curveto } bind def
/h { closepath } bind def
/re { exch dup neg 3 1 roll 5 3 roll moveto 0 rlineto
      0 exch rlineto 0 rlineto closepath } bind def
/S { stroke } bind def
/f { fill } bind def
/f* { eofill } bind def
/n { newpath } bind def
/W { clip } bind def
/W* { eoclip } bind def
/BT { } bind def
/ET { } bind def
/BDC { mark 3 1 roll /BDC pdfmark } bind def
/EMC { mark /EMC pdfmark } bind def
/cairo_store_point { /cairo_point_y exch def /cairo_point_x exch def } def
/Tj { show currentpoint cairo_store_point } bind def
/TJ {
  {
    dup
    type /stringtype eq
    { show } { -0.001 mul 0 cairo_font_matrix dtransform rmoveto } ifelse
  } forall
  currentpoint cairo_store_point
} bind def
/cairo_selectfont { cairo_font_matrix aload pop pop pop 0 0 6 array astore
    cairo_font exch selectfont cairo_point_x cairo_point_y moveto } bind def
/Tf { pop /cairo_font exch def /cairo_font_matrix where
      { pop cairo_selectfont } if } bind def
/Td { matrix translate cairo_font_matrix matrix concatmatrix dup
      /cairo_font_matrix exch def dup 4 get exch 5 get cairo_store_point
      /cairo_font where { pop cairo_selectfont } if } bind def
/Tm { 2 copy 8 2 roll 6 array astore /cairo_font_matrix exch def
      cairo_store_point /cairo_font where { pop cairo_selectfont } if } bind def
/g { setgray } bind def
/rg { setrgbcolor } bind def
/d1 { setcachedevice } bind def
/cairo_data_source {
  CairoDataIndex CairoData length lt
    { CairoData CairoDataIndex get /CairoDataIndex CairoDataIndex 1 add def }
    { () } ifelse
} def
/cairo_flush_ascii85_file { cairo_ascii85_file status { cairo_ascii85_file flushfile } if } def
/cairo_image { image cairo_flush_ascii85_file } def
/cairo_imagemask { imagemask cairo_flush_ascii85_file } def
%%EndProlog
%%BeginSetup
%%EndSetup
%%Page: 1 1
%%BeginPageSetup
%%PageBoundingBox: 52 0 332 384
%%EndPageSetup
q 52 0 280 384 rectclip
1 0 0 -1 0 384 cm q
0.956863 0.870588 0.282353 rg
203.59 104.305 92.715 46.359 re f
0.996078 0.968627 0.490196 rg
87.695 104.305 185.43 46.359 re f
0.968627 0.745098 0.282353 rg
296.305 139.074 m 273.125 139.074 l 273.125 384 l 296.305 384 l 315.508
 384 331.074 368.434 331.074 349.23 c 331.074 173.844 l 331.074 154.641 
315.508 139.074 296.305 139.074 c h
296.305 139.074 m f
0.956863 0.870588 0.282353 rg
307.895 349.23 m 307.895 173.844 l 307.895 154.641 292.328 139.074 273.125
 139.074 c 87.695 139.074 l 68.492 139.074 52.926 154.641 52.926 173.844
 c 52.926 349.23 l 52.926 368.434 68.492 384 87.695 384 c 273.125 384 l 
292.328 384 307.895 368.434 307.895 349.23 c h
307.895 349.23 m f
1 0.984314 0.745098 rg
192 185.434 m 192 337.641 l 234.031 337.641 268.105 303.57 268.105 261.539
 c 268.105 219.504 234.031 185.434 192 185.434 c h
192 185.434 m f
1 g
244.926 261.539 m 244.926 219.504 221.23 185.434 192 185.434 c 149.969 
185.434 115.895 219.504 115.895 261.539 c 115.895 303.57 149.969 337.641
 192 337.641 c 221.23 337.641 244.926 303.57 244.926 261.539 c h
244.926 261.539 m f
0.0588235 0.552941 0.647059 rg
296.305 69.539 m 249.949 34.77 l 273.125 92.715 l 296.305 92.715 l h
296.305 69.539 m f
0.00392157 0.694118 0.737255 rg
273.125 46.359 m 110.875 46.359 l 87.695 69.539 l 87.695 92.715 l 273.125
 92.715 l h
273.125 46.359 m f
0.968627 0.745098 0.282353 rg
296.305 115.895 m 273.125 115.895 l 273.125 92.715 l 296.305 92.715 l 302.703
 92.715 307.895 97.91 307.895 104.305 c 307.895 110.703 302.703 115.895 
296.305 115.895 c h
296.305 115.895 m f
0.956863 0.870588 0.282353 rg
273.125 115.895 m 279.523 115.895 284.715 110.703 284.715 104.305 c 284.715
 97.91 279.523 92.715 273.125 92.715 c 87.695 92.715 l 81.297 92.715 76.105
 97.91 76.105 104.305 c 76.105 110.703 81.297 115.895 87.695 115.895 c h
273.125 115.895 m f
0.00392157 0.694118 0.737255 rg
296.305 69.539 m 296.305 5.793 l 296.305 2.594 293.711 0 290.512 0 c 273.125
 0 l 249.949 34.77 l 273.125 69.539 l h
296.305 69.539 m f
0.454902 0.862745 0.886275 rg
273.125 69.539 m 273.125 0 l 249.949 0 l 226.77 34.77 l 249.949 69.539 
l h
273.125 69.539 m f
0.678431 0.94902 0.960784 rg
249.949 69.539 m 249.949 0 l 226.77 0 l 203.59 34.77 l 226.77 69.539 l 
h
249.949 69.539 m f
0.454902 0.862745 0.886275 rg
226.77 69.539 m 226.77 0 l 203.59 0 l 180.41 34.77 l 203.59 69.539 l h
226.77 69.539 m f
0.678431 0.94902 0.960784 rg
203.59 69.539 m 203.59 0 l 180.41 0 l 157.23 34.77 l 180.41 69.539 l h
203.59 69.539 m f
0.454902 0.862745 0.886275 rg
180.41 69.539 m 180.41 0 l 157.23 0 l 134.051 34.77 l 157.23 69.539 l h
180.41 69.539 m f
0.678431 0.94902 0.960784 rg
157.23 69.539 m 157.23 0 l 134.051 0 l 110.875 34.77 l 134.051 69.539 l
 h
157.23 69.539 m f
0.454902 0.862745 0.886275 rg
134.051 69.539 m 134.051 0 l 110.875 0 l 99.285 34.77 l 110.875 69.539 
l h
134.051 69.539 m f
0.678431 0.94902 0.960784 rg
110.875 69.539 m 110.875 0 l 93.488 0 l 90.289 0 87.695 2.594 87.695 5.793
 c 87.695 69.539 l h
110.875 69.539 m f
0.996078 0.968627 0.490196 rg
233.336 249.949 m 210.156 249.949 l 210.156 273.125 l 233.336 273.125 l
 239.738 273.125 244.926 267.938 244.926 261.539 c 244.926 255.137 239.738
 249.949 233.336 249.949 c h
233.336 249.949 m f
1 0.984314 0.745098 rg
221.746 261.539 m 221.746 255.137 216.559 249.949 210.156 249.949 c 150.664
 249.949 l 144.262 249.949 139.074 255.137 139.074 261.539 c 139.074 267.938
 144.262 273.125 150.664 273.125 c 210.156 273.125 l 216.559 273.125 221.746
 267.938 221.746 261.539 c h
221.746 261.539 m f
Q Q
showpage
%%Trailer
end
%%EOF
