%!PS-Adobe-3.0 EPSF-3.0
%%Creator: cairo 1.16.0 (https://cairographics.org)
%%CreationDate: Tue Oct 20 13:20:40 2020
%%Pages: 1
%%DocumentData: Clean7Bit
%%LanguageLevel: 2
%%BoundingBox: 0 0 384 384
%%EndComments
%%BeginProlog
50 dict begin
/q { gsave } bind def
/Q { grestore } bind def
/cm { 6 array astore concat } bind def
/w { setlinewidth } bind def
/J { setlinecap } bind def
/j { setlinejoin } bind def
/M { setmiterlimit } bind def
/d { setdash } bind def
/m { moveto } bind def
/l { lineto } bind def
/c { curveto } bind def
/h { closepath } bind def
/re { exch dup neg 3 1 roll 5 3 roll moveto 0 rlineto
      0 exch rlineto 0 rlineto closepath } bind def
/S { stroke } bind def
/f { fill } bind def
/f* { eofill } bind def
/n { newpath } bind def
/W { clip } bind def
/W* { eoclip } bind def
/BT { } bind def
/ET { } bind def
/BDC { mark 3 1 roll /BDC pdfmark } bind def
/EMC { mark /EMC pdfmark } bind def
/cairo_store_point { /cairo_point_y exch def /cairo_point_x exch def } def
/Tj { show currentpoint cairo_store_point } bind def
/TJ {
  {
    dup
    type /stringtype eq
    { show } { -0.001 mul 0 cairo_font_matrix dtransform rmoveto } ifelse
  } forall
  currentpoint cairo_store_point
} bind def
/cairo_selectfont { cairo_font_matrix aload pop pop pop 0 0 6 array astore
    cairo_font exch selectfont cairo_point_x cairo_point_y moveto } bind def
/Tf { pop /cairo_font exch def /cairo_font_matrix where
      { pop cairo_selectfont } if } bind def
/Td { matrix translate cairo_font_matrix matrix concatmatrix dup
      /cairo_font_matrix exch def dup 4 get exch 5 get cairo_store_point
      /cairo_font where { pop cairo_selectfont } if } bind def
/Tm { 2 copy 8 2 roll 6 array astore /cairo_font_matrix exch def
      cairo_store_point /cairo_font where { pop cairo_selectfont } if } bind def
/g { setgray } bind def
/rg { setrgbcolor } bind def
/d1 { setcachedevice } bind def
/cairo_data_source {
  CairoDataIndex CairoData length lt
    { CairoData CairoDataIndex get /CairoDataIndex CairoDataIndex 1 add def }
    { () } ifelse
} def
/cairo_flush_ascii85_file { cairo_ascii85_file status { cairo_ascii85_file flushfile } if } def
/cairo_image { image cairo_flush_ascii85_file } def
/cairo_imagemask { imagemask cairo_flush_ascii85_file } def
%%EndProlog
%%BeginSetup
%%EndSetup
%%Page: 1 1
%%BeginPageSetup
%%PageBoundingBox: 0 0 384 384
%%EndPageSetup
q 0 0 384 384 rectclip
1 0 0 -1 0 384 cm q
0.384314 0.403922 0.435294 rg
69.539 173.844 m 92.715 384 l 134.051 384 l 192 360.82 l 249.949 384 l 
291.285 384 l 314.461 173.844 l h
69.539 173.844 m f
0.513726 0.529412 0.54902 rg
249.949 384 m 226.77 384 l 203.59 337.641 l 249.949 360.82 l h
249.949 384 m f
0.643137 0.65098 0.666667 rg
226.77 384 m 134.051 384 l 134.051 360.82 l 226.77 337.641 l h
226.77 384 m f
249.949 360.82 m 226.77 360.82 l 203.59 314.461 l 249.949 337.641 l h
249.949 360.82 m f
0.760784 0.768627 0.776471 rg
226.77 360.82 m 134.051 360.82 l 134.051 337.641 l 226.77 314.461 l h
226.77 360.82 m f
314.461 337.641 m 238.359 337.641 l 192 326.051 l 145.641 337.641 l 69.539
 337.641 l 69.539 173.844 l 314.461 173.844 l h
314.461 337.641 m f
0.596078 0.827451 0.952941 rg
238.359 243.379 m 192.762 208.613 l 215.18 337.641 l 238.359 337.641 l 
h
238.359 243.379 m f
0.678431 0.94902 0.960784 rg
157.801 220.203 m 192 337.641 l 215.18 337.641 l 215.18 220.203 l h
157.801 220.203 m f
0.839216 0.976471 0.980392 rg
145.641 243.379 m 145.641 337.641 l 192 337.641 l 192 220.203 l h
145.641 243.379 m f
1 0.984314 0.745098 rg
169.594 173.844 m 215.953 243.379 l 239.129 243.379 l 239.129 173.844 l
 h
169.594 173.844 m f
1 g
144.871 173.844 71.082 69.535 re f
0.882353 0.882353 0.890196 rg
69.539 104.305 244.922 104.309 re f
0.760784 0.768627 0.776471 rg
360.82 0 m 326.051 57.949 l 384 23.18 l 384 5.793 l 384 2.594 381.406 0
 378.207 0 c h
360.82 0 m f
0.882353 0.882353 0.890196 rg
291.285 0 m 291.285 23.18 l 360.82 57.949 l 360.82 0 l h
291.285 0 m f
0.996078 0.368627 0.286275 rg
360.82 23.18 m 314.461 203.59 l 360.82 384 l 378.207 384 l 381.406 384 
384 381.406 384 378.207 c 384 23.18 l h
360.82 23.18 m f
0.996078 0.521569 0.4 rg
360.82 23.18 m 291.285 23.18 l 291.285 384 l 360.82 384 l 360.82 347.688
 l 349.23 318.711 l 360.82 289.738 l 360.82 266.559 l 349.23 237.586 l 360.82
 208.613 l 360.82 185.434 l 349.23 156.457 l 360.82 127.484 l 360.82 104.305
 l 349.23 75.332 l 360.82 46.359 l h
360.82 23.18 m f
0.760784 0.768627 0.776471 rg
69.539 0 m 34.77 57.949 l 92.715 23.18 l 92.715 5.793 l 92.715 2.594 90.121
 0 86.922 0 c h
69.539 0 m f
0.882353 0.882353 0.890196 rg
0 5.793 m 0 23.18 l 69.539 57.949 l 69.539 0 l 5.793 0 l 2.594 0 0 2.594
 0 5.793 c h
0 5.793 m f
0.996078 0.368627 0.286275 rg
69.539 23.18 m 23.18 203.59 l 69.539 384 l 92.715 384 l 92.715 23.18 l 
h
69.539 23.18 m f
0.996078 0.521569 0.4 rg
69.539 23.18 m 0 23.18 l 0 378.207 l 0 381.406 2.594 384 5.793 384 c 69.539
 384 l 69.539 347.688 l 57.949 318.711 l 69.539 289.738 l 69.539 266.559
 l 57.949 237.586 l 69.539 208.613 l 69.539 185.434 l 57.949 156.457 l 69.539
 127.484 l 69.539 104.305 l 57.949 75.332 l 69.539 46.359 l h
69.539 23.18 m f
0.839216 0.976471 0.980392 rg
46.359 46.359 m 34.77 75.332 l 46.359 104.305 l 69.539 104.305 l 69.539
 46.359 l h
46.359 46.359 m f
1 g
23.18 46.359 23.18 57.945 re f
0.839216 0.976471 0.980392 rg
46.359 127.484 m 34.77 156.457 l 46.359 185.434 l 69.539 185.434 l 69.539
 127.484 l h
46.359 127.484 m f
1 g
23.18 127.484 23.18 57.949 re f
0.839216 0.976471 0.980392 rg
46.359 208.613 m 34.77 237.586 l 46.359 266.559 l 69.539 266.559 l 69.539
 208.613 l h
46.359 208.613 m f
1 g
23.18 208.613 23.18 57.945 re f
0.839216 0.976471 0.980392 rg
46.359 289.738 m 34.77 318.711 l 46.359 347.688 l 69.539 347.688 l 69.539
 289.738 l h
46.359 289.738 m f
1 g
23.18 289.738 23.18 57.949 re f
0.839216 0.976471 0.980392 rg
337.641 46.359 m 326.051 75.332 l 337.641 104.305 l 360.82 104.305 l 360.82
 46.359 l h
337.641 46.359 m f
1 g
314.461 46.359 23.18 57.945 re f
0.839216 0.976471 0.980392 rg
337.641 127.484 m 326.051 156.457 l 337.641 185.434 l 360.82 185.434 l 
360.82 127.484 l h
337.641 127.484 m f
1 g
314.461 127.484 23.18 57.949 re f
0.839216 0.976471 0.980392 rg
337.641 208.613 m 326.051 237.586 l 337.641 266.559 l 360.82 266.559 l 
360.82 208.613 l h
337.641 208.613 m f
1 g
314.461 208.613 23.18 57.945 re f
0.839216 0.976471 0.980392 rg
337.641 289.738 m 326.051 318.711 l 337.641 347.688 l 360.82 347.688 l 
360.82 289.738 l h
337.641 289.738 m f
1 g
314.461 289.738 23.18 57.949 re f
1 0.227451 0.2 rg
203.59 144.871 m 203.59 127.484 l 180.41 127.484 l 180.41 144.871 l 163.027
 144.871 l 163.027 168.047 l 180.41 168.047 l 180.41 185.434 l 203.59 185.434
 l 203.59 168.047 l 220.973 168.047 l 220.973 144.871 l h
203.59 144.871 m f
Q Q
showpage
%%Trailer
end
%%EOF
