%!PS-Adobe-3.0 EPSF-3.0
%%Creator: cairo 1.16.0 (https://cairographics.org)
%%CreationDate: Tue Oct 20 13:20:41 2020
%%Pages: 1
%%DocumentData: Clean7Bit
%%LanguageLevel: 2
%%BoundingBox: 99 0 285 384
%%EndComments
%%BeginProlog
50 dict begin
/q { gsave } bind def
/Q { grestore } bind def
/cm { 6 array astore concat } bind def
/w { setlinewidth } bind def
/J { setlinecap } bind def
/j { setlinejoin } bind def
/M { setmiterlimit } bind def
/d { setdash } bind def
/m { moveto } bind def
/l { lineto } bind def
/c { curveto } bind def
/h { closepath } bind def
/re { exch dup neg 3 1 roll 5 3 roll moveto 0 rlineto
      0 exch rlineto 0 rlineto closepath } bind def
/S { stroke } bind def
/f { fill } bind def
/f* { eofill } bind def
/n { newpath } bind def
/W { clip } bind def
/W* { eoclip } bind def
/BT { } bind def
/ET { } bind def
/BDC { mark 3 1 roll /BDC pdfmark } bind def
/EMC { mark /EMC pdfmark } bind def
/cairo_store_point { /cairo_point_y exch def /cairo_point_x exch def } def
/Tj { show currentpoint cairo_store_point } bind def
/TJ {
  {
    dup
    type /stringtype eq
    { show } { -0.001 mul 0 cairo_font_matrix dtransform rmoveto } ifelse
  } forall
  currentpoint cairo_store_point
} bind def
/cairo_selectfont { cairo_font_matrix aload pop pop pop 0 0 6 array astore
    cairo_font exch selectfont cairo_point_x cairo_point_y moveto } bind def
/Tf { pop /cairo_font exch def /cairo_font_matrix where
      { pop cairo_selectfont } if } bind def
/Td { matrix translate cairo_font_matrix matrix concatmatrix dup
      /cairo_font_matrix exch def dup 4 get exch 5 get cairo_store_point
      /cairo_font where { pop cairo_selectfont } if } bind def
/Tm { 2 copy 8 2 roll 6 array astore /cairo_font_matrix exch def
      cairo_store_point /cairo_font where { pop cairo_selectfont } if } bind def
/g { setgray } bind def
/rg { setrgbcolor } bind def
/d1 { setcachedevice } bind def
/cairo_data_source {
  CairoDataIndex CairoData length lt
    { CairoData CairoDataIndex get /CairoDataIndex CairoDataIndex 1 add def }
    { () } ifelse
} def
/cairo_flush_ascii85_file { cairo_ascii85_file status { cairo_ascii85_file flushfile } if } def
/cairo_image { image cairo_flush_ascii85_file } def
/cairo_imagemask { imagemask cairo_flush_ascii85_file } def
%%EndProlog
%%BeginSetup
%%EndSetup
%%Page: 1 1
%%BeginPageSetup
%%PageBoundingBox: 99 0 285 384
%%EndPageSetup
q 99 0 186 384 rectclip
1 0 0 -1 0 384 cm q
1 0.227451 0.2 rg
210.141 0 m 192 0 l 180.41 105.852 l 226.77 82.672 l 215.879 4.992 l 215.477
 2.129 213.031 0 210.141 0 c h
210.141 0 m f
0.996078 0.368627 0.286275 rg
192 0 m 173.859 0 l 170.969 0 168.523 2.129 168.121 4.992 c 157.23 82.672
 l 180.41 105.852 l 203.59 82.672 l h
192 0 m f
0.709804 0.219608 0.25098 rg
226.77 82.672 m 157.23 141.07 l 249.949 141.07 l 249.949 88.469 l 249.949
 85.266 247.352 82.672 244.152 82.672 c h
226.77 82.672 m f
1 0.227451 0.2 rg
134.051 88.469 m 134.051 141.07 l 226.77 141.07 l 226.77 82.672 l 139.848
 82.672 l 136.648 82.672 134.051 85.266 134.051 88.469 c h
134.051 88.469 m f
0.678431 0.94902 0.960784 rg
157.23 140.621 m 249.949 384 l 267.332 384 l 270.531 384 273.125 381.406
 273.125 378.207 c 273.125 140.621 l h
157.23 140.621 m f
0.839216 0.976471 0.980392 rg
249.949 140.621 m 110.875 140.621 l 110.875 378.207 l 110.875 381.406 113.469
 384 116.668 384 c 249.949 384 l 249.949 349.23 l 238.359 268.105 l 249.949
 186.977 l h
249.949 140.621 m f
1 0.227451 0.2 rg
273.125 129.48 m 249.949 129.48 l 249.949 152.656 l 273.125 152.656 l 279.523
 152.656 284.715 147.465 284.715 141.07 c 284.715 134.672 279.523 129.48
 273.125 129.48 c h
273.125 129.48 m f
0.996078 0.368627 0.286275 rg
249.949 129.48 m 256.344 129.48 261.539 134.672 261.539 141.07 c 261.539
 147.465 256.344 152.656 249.949 152.656 c 110.875 152.656 l 104.477 152.656
 99.285 147.465 99.285 141.07 c 99.285 134.672 104.477 129.48 110.875 129.48
 c h
249.949 129.48 m f
0.968627 0.745098 0.282353 rg
180.41 360.82 m 145.641 268.105 l 180.41 175.387 l 203.59 175.387 l 203.59
 360.82 l h
180.41 360.82 m f
0.956863 0.870588 0.282353 rg
134.051 175.387 46.359 185.434 re f
0.996078 0.368627 0.286275 rg
249.949 279.695 m 238.359 291.285 l 226.77 279.695 l 226.77 256.516 l 238.359
 244.926 l 249.949 256.516 l h
249.949 279.695 m f
0.12549 0.156863 0.2 rg
226.77 279.695 m 226.77 349.23 l 226.77 355.633 231.957 360.82 238.359 
360.82 c 244.758 360.82 249.949 355.633 249.949 349.23 c 249.949 279.695
 l h
226.77 279.695 m f
0.254902 0.282353 0.317647 rg
238.359 175.387 m 231.957 175.387 226.77 180.578 226.77 186.977 c 226.77
 256.516 l 249.949 256.516 l 249.949 186.977 l 249.949 180.578 244.758 175.387
 238.359 175.387 c h
238.359 175.387 m f
180.41 204.363 m 157.23 204.363 l 154.031 204.363 151.438 201.77 151.438
 198.566 c 151.438 195.367 154.031 192.773 157.23 192.773 c 180.41 192.773
 l 183.613 192.773 186.207 195.367 186.207 198.566 c 186.207 201.77 183.613
 204.363 180.41 204.363 c h
180.41 204.363 m f
180.41 227.543 m 168.82 227.543 l 165.621 227.543 163.027 224.945 163.027
 221.746 c 163.027 218.547 165.621 215.953 168.82 215.953 c 180.41 215.953
 l 183.613 215.953 186.207 218.547 186.207 221.746 c 186.207 224.945 183.613
 227.543 180.41 227.543 c h
180.41 227.543 m f
180.41 250.719 m 157.23 250.719 l 154.031 250.719 151.438 248.125 151.438
 244.926 c 151.438 241.727 154.031 239.129 157.23 239.129 c 180.41 239.129
 l 183.613 239.129 186.207 241.727 186.207 244.926 c 186.207 248.125 183.613
 250.719 180.41 250.719 c h
180.41 250.719 m f
180.41 273.898 m 168.82 273.898 l 165.621 273.898 163.027 271.305 163.027
 268.105 c 163.027 264.906 165.621 262.309 168.82 262.309 c 180.41 262.309
 l 183.613 262.309 186.207 264.906 186.207 268.105 c 186.207 271.305 183.613
 273.898 180.41 273.898 c h
180.41 273.898 m f
180.41 297.078 m 157.23 297.078 l 154.031 297.078 151.438 294.484 151.438
 291.285 c 151.438 288.082 154.031 285.488 157.23 285.488 c 180.41 285.488
 l 183.613 285.488 186.207 288.082 186.207 291.285 c 186.207 294.484 183.613
 297.078 180.41 297.078 c h
180.41 297.078 m f
180.41 320.258 m 168.82 320.258 l 165.621 320.258 163.027 317.664 163.027
 314.461 c 163.027 311.262 165.621 308.668 168.82 308.668 c 180.41 308.668
 l 183.613 308.668 186.207 311.262 186.207 314.461 c 186.207 317.664 183.613
 320.258 180.41 320.258 c h
180.41 320.258 m f
180.41 343.438 m 157.23 343.438 l 154.031 343.438 151.438 340.844 151.438
 337.641 c 151.438 334.441 154.031 331.848 157.23 331.848 c 180.41 331.848
 l 183.613 331.848 186.207 334.441 186.207 337.641 c 186.207 340.844 183.613
 343.438 180.41 343.438 c h
180.41 343.438 m f
Q Q
showpage
%%Trailer
end
%%EOF
