%!PS-Adobe-3.0 EPSF-3.0
%%Creator: cairo 1.16.0 (https://cairographics.org)
%%CreationDate: Tue Oct 20 13:20:41 2020
%%Pages: 1
%%DocumentData: Clean7Bit
%%LanguageLevel: 2
%%BoundingBox: 0 0 384 384
%%EndComments
%%BeginProlog
50 dict begin
/q { gsave } bind def
/Q { grestore } bind def
/cm { 6 array astore concat } bind def
/w { setlinewidth } bind def
/J { setlinecap } bind def
/j { setlinejoin } bind def
/M { setmiterlimit } bind def
/d { setdash } bind def
/m { moveto } bind def
/l { lineto } bind def
/c { curveto } bind def
/h { closepath } bind def
/re { exch dup neg 3 1 roll 5 3 roll moveto 0 rlineto
      0 exch rlineto 0 rlineto closepath } bind def
/S { stroke } bind def
/f { fill } bind def
/f* { eofill } bind def
/n { newpath } bind def
/W { clip } bind def
/W* { eoclip } bind def
/BT { } bind def
/ET { } bind def
/BDC { mark 3 1 roll /BDC pdfmark } bind def
/EMC { mark /EMC pdfmark } bind def
/cairo_store_point { /cairo_point_y exch def /cairo_point_x exch def } def
/Tj { show currentpoint cairo_store_point } bind def
/TJ {
  {
    dup
    type /stringtype eq
    { show } { -0.001 mul 0 cairo_font_matrix dtransform rmoveto } ifelse
  } forall
  currentpoint cairo_store_point
} bind def
/cairo_selectfont { cairo_font_matrix aload pop pop pop 0 0 6 array astore
    cairo_font exch selectfont cairo_point_x cairo_point_y moveto } bind def
/Tf { pop /cairo_font exch def /cairo_font_matrix where
      { pop cairo_selectfont } if } bind def
/Td { matrix translate cairo_font_matrix matrix concatmatrix dup
      /cairo_font_matrix exch def dup 4 get exch 5 get cairo_store_point
      /cairo_font where { pop cairo_selectfont } if } bind def
/Tm { 2 copy 8 2 roll 6 array astore /cairo_font_matrix exch def
      cairo_store_point /cairo_font where { pop cairo_selectfont } if } bind def
/g { setgray } bind def
/rg { setrgbcolor } bind def
/d1 { setcachedevice } bind def
/cairo_data_source {
  CairoDataIndex CairoData length lt
    { CairoData CairoDataIndex get /CairoDataIndex CairoDataIndex 1 add def }
    { () } ifelse
} def
/cairo_flush_ascii85_file { cairo_ascii85_file status { cairo_ascii85_file flushfile } if } def
/cairo_image { image cairo_flush_ascii85_file } def
/cairo_imagemask { imagemask cairo_flush_ascii85_file } def
%%EndProlog
%%BeginSetup
%%EndSetup
%%Page: 1 1
%%BeginPageSetup
%%PageBoundingBox: 0 0 384 384
%%EndPageSetup
q 0 0 384 384 rectclip
1 0 0 -1 0 384 cm q
0.678431 0.94902 0.960784 rg
337.641 0 m 314.461 0 l 314.461 372.41 l 360.82 372.41 l 360.82 23.18 l
 360.82 10.379 350.445 0 337.641 0 c h
337.641 0 m f
0.839216 0.976471 0.980392 rg
337.641 23.18 m 337.641 10.379 327.266 0 314.461 0 c 46.359 0 l 33.555 
0 23.18 10.379 23.18 23.18 c 23.18 372.41 l 337.641 372.41 l 337.641 337.641
 l 302.875 180.41 l h
337.641 23.18 m f
0.513726 0.701961 0.945098 rg
232.82 314.461 m 232.82 337.641 l 209.641 337.641 l 174.359 268.105 l h
232.82 314.461 m f
0.596078 0.827451 0.952941 rg
151.18 314.461 m 151.18 337.641 l 209.641 337.641 l 209.641 268.105 l h
151.18 314.461 m f
209.641 23.18 m 174.871 168.82 l 209.641 314.461 l 232.82 314.461 l 232.82
 23.18 l h
209.641 23.18 m f
0.678431 0.94902 0.960784 rg
151.18 23.18 58.461 291.281 re f
0.513726 0.701961 0.945098 rg
128 314.461 m 128 337.641 l 104.82 337.641 l 69.539 268.105 l h
128 314.461 m f
0.596078 0.827451 0.952941 rg
46.359 314.461 m 46.359 337.641 l 104.82 337.641 l 104.82 268.105 l h
46.359 314.461 m f
104.82 23.18 m 70.051 168.82 l 104.82 314.461 l 128 314.461 l 128 23.18
 l h
104.82 23.18 m f
0.678431 0.94902 0.960784 rg
46.359 23.18 58.461 291.281 re f
0.709804 0.219608 0.25098 rg
87.18 46.359 m 87.18 128 l 109.723 128 128 109.723 128 87.18 c 128 64.633
 109.723 46.359 87.18 46.359 c h
87.18 46.359 m f
1 0.227451 0.2 rg
104.82 87.18 m 104.82 64.633 96.922 46.359 87.18 46.359 c 64.633 46.359
 46.359 64.633 46.359 87.18 c 46.359 109.723 64.633 128 87.18 128 c 96.922
 128 104.82 109.723 104.82 87.18 c h
104.82 87.18 m f
0.513726 0.701961 0.945098 rg
337.641 314.461 m 337.641 337.641 l 314.461 337.641 l 279.18 268.105 l 
h
337.641 314.461 m f
0.596078 0.827451 0.952941 rg
256 314.461 m 256 337.641 l 314.461 337.641 l 314.461 268.105 l h
256 314.461 m f
314.461 23.18 m 279.695 168.82 l 314.461 314.461 l 337.641 314.461 l 337.641
 23.18 l h
314.461 23.18 m f
0.678431 0.94902 0.960784 rg
256 23.18 58.461 291.281 re f
0.596078 0.827451 0.952941 rg
360.82 360.82 m 337.641 360.82 l 360.82 384 l 377.211 384 l 381.199 384
 384.016 380.062 382.691 376.301 c 379.516 367.285 370.926 360.82 360.82
 360.82 c h
360.82 360.82 m f
0.678431 0.94902 0.960784 rg
23.18 360.82 m 13.074 360.82 4.484 367.285 1.309 376.301 c -0.016 380.062
 2.801 384 6.789 384 c 360.82 384 l 360.82 371.199 350.445 360.82 337.641
 360.82 c h
23.18 360.82 m f
0.45098 0.427451 0.85098 rg
296.82 46.359 m 296.82 128 l 319.367 128 337.641 109.723 337.641 87.18 
c 337.641 64.633 319.367 46.359 296.82 46.359 c h
296.82 46.359 m f
0.572549 0.545098 1 rg
314.461 87.18 m 314.461 64.633 306.562 46.359 296.82 46.359 c 274.277 46.359
 256 64.633 256 87.18 c 256 109.723 274.277 128 296.82 128 c 306.562 128
 314.461 109.723 314.461 87.18 c h
314.461 87.18 m f
0.45098 0.427451 0.85098 rg
192 46.359 m 192 128 l 214.543 128 232.82 109.723 232.82 87.18 c 232.82
 64.633 214.543 46.359 192 46.359 c h
192 46.359 m f
0.572549 0.545098 1 rg
209.641 87.18 m 209.641 64.633 201.742 46.359 192 46.359 c 169.457 46.359
 151.18 64.633 151.18 87.18 c 151.18 109.723 169.457 128 192 128 c 201.742
 128 209.641 109.723 209.641 87.18 c h
209.641 87.18 m f
Q Q
showpage
%%Trailer
end
%%EOF
