%!PS-Adobe-3.0 EPSF-3.0
%%Creator: cairo 1.16.0 (https://cairographics.org)
%%CreationDate: Tue Oct 20 13:20:44 2020
%%Pages: 1
%%DocumentData: Clean7Bit
%%LanguageLevel: 2
%%BoundingBox: 60 0 324 384
%%EndComments
%%BeginProlog
50 dict begin
/q { gsave } bind def
/Q { grestore } bind def
/cm { 6 array astore concat } bind def
/w { setlinewidth } bind def
/J { setlinecap } bind def
/j { setlinejoin } bind def
/M { setmiterlimit } bind def
/d { setdash } bind def
/m { moveto } bind def
/l { lineto } bind def
/c { curveto } bind def
/h { closepath } bind def
/re { exch dup neg 3 1 roll 5 3 roll moveto 0 rlineto
      0 exch rlineto 0 rlineto closepath } bind def
/S { stroke } bind def
/f { fill } bind def
/f* { eofill } bind def
/n { newpath } bind def
/W { clip } bind def
/W* { eoclip } bind def
/BT { } bind def
/ET { } bind def
/BDC { mark 3 1 roll /BDC pdfmark } bind def
/EMC { mark /EMC pdfmark } bind def
/cairo_store_point { /cairo_point_y exch def /cairo_point_x exch def } def
/Tj { show currentpoint cairo_store_point } bind def
/TJ {
  {
    dup
    type /stringtype eq
    { show } { -0.001 mul 0 cairo_font_matrix dtransform rmoveto } ifelse
  } forall
  currentpoint cairo_store_point
} bind def
/cairo_selectfont { cairo_font_matrix aload pop pop pop 0 0 6 array astore
    cairo_font exch selectfont cairo_point_x cairo_point_y moveto } bind def
/Tf { pop /cairo_font exch def /cairo_font_matrix where
      { pop cairo_selectfont } if } bind def
/Td { matrix translate cairo_font_matrix matrix concatmatrix dup
      /cairo_font_matrix exch def dup 4 get exch 5 get cairo_store_point
      /cairo_font where { pop cairo_selectfont } if } bind def
/Tm { 2 copy 8 2 roll 6 array astore /cairo_font_matrix exch def
      cairo_store_point /cairo_font where { pop cairo_selectfont } if } bind def
/g { setgray } bind def
/rg { setrgbcolor } bind def
/d1 { setcachedevice } bind def
/cairo_data_source {
  CairoDataIndex CairoData length lt
    { CairoData CairoDataIndex get /CairoDataIndex CairoDataIndex 1 add def }
    { () } ifelse
} def
/cairo_flush_ascii85_file { cairo_ascii85_file status { cairo_ascii85_file flushfile } if } def
/cairo_image { image cairo_flush_ascii85_file } def
/cairo_imagemask { imagemask cairo_flush_ascii85_file } def
%%EndProlog
%%BeginSetup
%%EndSetup
%%Page: 1 1
%%BeginPageSetup
%%PageBoundingBox: 60 0 324 384
%%EndPageSetup
q 60 0 264 384 rectclip
1 0 0 -1 0 384 cm q
0.882353 0.882353 0.890196 rg
192 384 m 119.457 384 60.652 325.191 60.652 252.652 c 60.652 46.359 l 60.652
 20.754 81.406 0 107.012 0 c 276.988 0 l 302.594 0 323.348 20.754 323.348
 46.359 c 323.348 252.652 l 323.348 325.191 264.543 384 192 384 c h
192 384 m f
0.572549 0.545098 1 rg
276.988 23.18 m 253.812 23.18 l 192 360.82 l 251.738 360.82 300.168 312.391
 300.168 252.652 c 300.168 46.359 l 300.168 33.555 289.793 23.18 276.988
 23.18 c h
276.988 23.18 m f
0.513726 0.701961 0.945098 rg
276.988 252.652 m 219.043 149.504 l 276.988 46.359 l 276.988 33.555 266.613
 23.18 253.812 23.18 c 107.012 23.18 l 94.207 23.18 83.832 33.555 83.832
 46.359 c 83.832 252.652 l 83.832 312.391 132.262 360.82 192 360.82 c 238.938
 360.82 276.988 312.391 276.988 252.652 c h
276.988 252.652 m f
0.839216 0.976471 0.980392 rg
192 275.832 m 192 337.641 l 209.066 337.641 222.906 323.805 222.906 306.738
 c 222.906 289.668 209.066 275.832 192 275.832 c h
192 275.832 m f
1 g
199.727 306.738 m 199.727 289.668 196.266 275.832 192 275.832 c 174.934
 275.832 161.094 289.668 161.094 306.738 c 161.094 323.805 174.934 337.641
 192 337.641 c 196.266 337.641 199.727 323.805 199.727 306.738 c h
199.727 306.738 m f
0.12549 0.2 0.352941 rg
253.812 46.359 m 184.273 149.504 l 253.812 252.652 l 276.988 252.652 l 
276.988 46.359 l h
253.812 46.359 m f
0.168627 0.266667 0.470588 rg
107.012 46.359 m 107.012 252.652 l 253.812 252.652 l 253.812 229.473 l 
230.633 194.703 l 253.812 159.938 l 253.812 46.359 l h
107.012 46.359 m f
0.227451 0.780392 0.811765 rg
212.605 159.938 m 189.426 194.703 l 212.605 229.473 l 253.812 229.473 l
 253.812 159.938 l h
212.605 159.938 m f
0.454902 0.862745 0.886275 rg
171.395 159.938 m 148.219 194.703 l 171.395 229.473 l 212.605 229.473 l
 212.605 159.938 l h
171.395 159.938 m f
1 0.984314 0.745098 rg
130.188 159.938 41.207 69.535 re f
1 0.227451 0.2 rg
207.453 69.539 m 205.148 69.539 202.93 69.879 200.828 70.504 c 192 136.758
 l 192 136.758 230.633 120.348 230.633 92.715 c 230.633 79.914 220.254 69.539
 207.453 69.539 c h
207.453 69.539 m f
0.996078 0.368627 0.286275 rg
200.828 70.504 m 197.516 71.488 194.512 73.195 192 75.445 c 187.898 71.773
 182.484 69.539 176.547 69.539 c 163.746 69.539 153.367 79.914 153.367 92.715
 c 153.367 120.348 192 136.758 192 136.758 c 192 136.758 207.453 120.348
 207.453 92.715 c 207.453 82.219 204.66 73.352 200.828 70.504 c h
200.828 70.504 m f
Q Q
showpage
%%Trailer
end
%%EOF
