%!PS-Adobe-3.0 EPSF-3.0
%%Creator: cairo 1.16.0 (https://cairographics.org)
%%CreationDate: Tue Oct 20 13:20:44 2020
%%Pages: 1
%%DocumentData: Clean7Bit
%%LanguageLevel: 2
%%BoundingBox: 74 0 310 384
%%EndComments
%%BeginProlog
50 dict begin
/q { gsave } bind def
/Q { grestore } bind def
/cm { 6 array astore concat } bind def
/w { setlinewidth } bind def
/J { setlinecap } bind def
/j { setlinejoin } bind def
/M { setmiterlimit } bind def
/d { setdash } bind def
/m { moveto } bind def
/l { lineto } bind def
/c { curveto } bind def
/h { closepath } bind def
/re { exch dup neg 3 1 roll 5 3 roll moveto 0 rlineto
      0 exch rlineto 0 rlineto closepath } bind def
/S { stroke } bind def
/f { fill } bind def
/f* { eofill } bind def
/n { newpath } bind def
/W { clip } bind def
/W* { eoclip } bind def
/BT { } bind def
/ET { } bind def
/BDC { mark 3 1 roll /BDC pdfmark } bind def
/EMC { mark /EMC pdfmark } bind def
/cairo_store_point { /cairo_point_y exch def /cairo_point_x exch def } def
/Tj { show currentpoint cairo_store_point } bind def
/TJ {
  {
    dup
    type /stringtype eq
    { show } { -0.001 mul 0 cairo_font_matrix dtransform rmoveto } ifelse
  } forall
  currentpoint cairo_store_point
} bind def
/cairo_selectfont { cairo_font_matrix aload pop pop pop 0 0 6 array astore
    cairo_font exch selectfont cairo_point_x cairo_point_y moveto } bind def
/Tf { pop /cairo_font exch def /cairo_font_matrix where
      { pop cairo_selectfont } if } bind def
/Td { matrix translate cairo_font_matrix matrix concatmatrix dup
      /cairo_font_matrix exch def dup 4 get exch 5 get cairo_store_point
      /cairo_font where { pop cairo_selectfont } if } bind def
/Tm { 2 copy 8 2 roll 6 array astore /cairo_font_matrix exch def
      cairo_store_point /cairo_font where { pop cairo_selectfont } if } bind def
/g { setgray } bind def
/rg { setrgbcolor } bind def
/d1 { setcachedevice } bind def
/cairo_data_source {
  CairoDataIndex CairoData length lt
    { CairoData CairoDataIndex get /CairoDataIndex CairoDataIndex 1 add def }
    { () } ifelse
} def
/cairo_flush_ascii85_file { cairo_ascii85_file status { cairo_ascii85_file flushfile } if } def
/cairo_image { image cairo_flush_ascii85_file } def
/cairo_imagemask { imagemask cairo_flush_ascii85_file } def
%%EndProlog
%%BeginSetup
%%EndSetup
%%Page: 1 1
%%BeginPageSetup
%%PageBoundingBox: 74 0 310 384
%%EndPageSetup
q 74 0 236 384 rectclip
1 0 0 -1 0 384 cm q
0.572549 0.545098 1 rg
180.41 92.715 46.359 57.949 re f
0.513726 0.701961 0.945098 rg
157.23 92.715 46.359 57.949 re f
273.125 200.801 m 203.59 258.746 l 203.59 127.484 l 226.77 127.484 l 254.176
 140.504 273.125 168.434 273.125 200.801 c h
273.125 200.801 m f
0.596078 0.827451 0.952941 rg
249.949 200.801 m 110.875 200.801 l 110.875 168.434 129.824 140.504 157.23
 127.484 c 203.59 127.484 l 230.996 140.504 249.949 168.434 249.949 200.801
 c h
249.949 200.801 m f
0.760784 0.768627 0.776471 rg
273.125 200.801 m 273.125 384 l 249.949 384 l 192 292.398 l 249.949 200.801
 l h
273.125 200.801 m f
0.882353 0.882353 0.890196 rg
110.875 200.801 139.074 183.199 re f
0.968627 0.745098 0.282353 rg
192 46.359 m 185.598 46.359 180.41 51.547 180.41 57.949 c 180.41 92.715
 l 203.59 92.715 l 203.59 57.949 l 203.59 51.547 198.402 46.359 192 46.359
 c h
192 46.359 m f
0.168627 0.266667 0.470588 rg
226.77 11.59 m 226.77 81.125 l 157.23 81.125 l 157.23 11.59 l 85.832 11.59
 l 85.832 23.18 l 93 23.18 99.617 27.02 103.172 33.242 c 137.105 92.629 
l 141.234 99.848 148.914 104.305 157.23 104.305 c 226.77 104.305 l 235.086
 104.305 242.766 99.848 246.895 92.625 c 280.828 33.242 l 284.383 27.02 
291 23.18 298.168 23.18 c 298.168 11.59 l h
226.77 11.59 m f
0.572549 0.545098 1 rg
298.168 0 m 274.988 0 l 274.988 23.18 l 298.168 23.18 l 304.57 23.18 309.758
 17.988 309.758 11.59 c 309.758 5.188 304.57 0 298.168 0 c h
298.168 0 m f
0.513726 0.701961 0.945098 rg
286.578 11.59 m 286.578 5.188 281.391 0 274.988 0 c 85.832 0 l 79.43 0 
74.242 5.188 74.242 11.59 c 74.242 17.988 79.43 23.18 85.832 23.18 c 274.988
 23.18 l 281.391 23.18 286.578 17.988 286.578 11.59 c h
286.578 11.59 m f
Q Q
showpage
%%Trailer
end
%%EOF
