%!PS-Adobe-3.0 EPSF-3.0
%%Creator: cairo 1.16.0 (https://cairographics.org)
%%CreationDate: Tue Oct 20 13:20:45 2020
%%Pages: 1
%%DocumentData: Clean7Bit
%%LanguageLevel: 2
%%BoundingBox: 66 0 318 384
%%EndComments
%%BeginProlog
50 dict begin
/q { gsave } bind def
/Q { grestore } bind def
/cm { 6 array astore concat } bind def
/w { setlinewidth } bind def
/J { setlinecap } bind def
/j { setlinejoin } bind def
/M { setmiterlimit } bind def
/d { setdash } bind def
/m { moveto } bind def
/l { lineto } bind def
/c { curveto } bind def
/h { closepath } bind def
/re { exch dup neg 3 1 roll 5 3 roll moveto 0 rlineto
      0 exch rlineto 0 rlineto closepath } bind def
/S { stroke } bind def
/f { fill } bind def
/f* { eofill } bind def
/n { newpath } bind def
/W { clip } bind def
/W* { eoclip } bind def
/BT { } bind def
/ET { } bind def
/BDC { mark 3 1 roll /BDC pdfmark } bind def
/EMC { mark /EMC pdfmark } bind def
/cairo_store_point { /cairo_point_y exch def /cairo_point_x exch def } def
/Tj { show currentpoint cairo_store_point } bind def
/TJ {
  {
    dup
    type /stringtype eq
    { show } { -0.001 mul 0 cairo_font_matrix dtransform rmoveto } ifelse
  } forall
  currentpoint cairo_store_point
} bind def
/cairo_selectfont { cairo_font_matrix aload pop pop pop 0 0 6 array astore
    cairo_font exch selectfont cairo_point_x cairo_point_y moveto } bind def
/Tf { pop /cairo_font exch def /cairo_font_matrix where
      { pop cairo_selectfont } if } bind def
/Td { matrix translate cairo_font_matrix matrix concatmatrix dup
      /cairo_font_matrix exch def dup 4 get exch 5 get cairo_store_point
      /cairo_font where { pop cairo_selectfont } if } bind def
/Tm { 2 copy 8 2 roll 6 array astore /cairo_font_matrix exch def
      cairo_store_point /cairo_font where { pop cairo_selectfont } if } bind def
/g { setgray } bind def
/rg { setrgbcolor } bind def
/d1 { setcachedevice } bind def
/cairo_data_source {
  CairoDataIndex CairoData length lt
    { CairoData CairoDataIndex get /CairoDataIndex CairoDataIndex 1 add def }
    { () } ifelse
} def
/cairo_flush_ascii85_file { cairo_ascii85_file status { cairo_ascii85_file flushfile } if } def
/cairo_image { image cairo_flush_ascii85_file } def
/cairo_imagemask { imagemask cairo_flush_ascii85_file } def
%%EndProlog
%%BeginSetup
%%EndSetup
%%Page: 1 1
%%BeginPageSetup
%%PageBoundingBox: 66 0 318 384
%%EndPageSetup
q 66 0 252 384 rectclip
1 0 0 -1 0 384 cm q
0.227451 0.780392 0.811765 rg
317.027 288.988 m 295.727 379.516 l 294.992 382.641 291.863 384.578 288.738
 383.844 c 271.145 379.703 l 219.32 277.859 l 295.109 277.859 l 312.699 
282 l 315.828 282.734 317.762 285.863 317.027 288.988 c h
317.027 288.988 m f
0.454902 0.862745 0.886275 rg
261.777 270.02 m 180.402 270.02 l 237.816 371.863 l 271.145 379.703 l 295.109
 277.859 l h
261.777 270.02 m f
0.760784 0.768627 0.776471 rg
206.316 0 m 183.066 0 l 183.066 93 l 229.566 34.875 l 229.566 23.25 l 229.566
 10.41 219.156 0 206.316 0 c h
206.316 0 m f
0.882353 0.882353 0.890196 rg
206.316 23.25 m 206.316 93 l 142.379 93 l 78.441 34.875 l 78.441 23.25 
l 78.441 10.41 88.848 0 101.691 0 c 183.066 0 l 195.906 0 206.316 10.41 
206.316 23.25 c h
206.316 23.25 m f
0.45098 0.427451 0.85098 rg
229.566 34.875 m 229.566 93 l 165.629 93 l 206.316 34.875 l h
229.566 34.875 m f
0.572549 0.545098 1 rg
165.629 34.875 40.688 58.125 re f
78.441 34.875 63.938 58.125 re f
0.227451 0.780392 0.811765 rg
263.109 264.359 m 236.484 377.52 l 235.75 380.645 232.621 382.582 229.496
 381.844 c 211.906 377.703 l 165.406 253.23 l 241.191 253.23 l 258.785 257.371
 l 261.91 258.105 263.844 261.234 263.109 264.359 c h
263.109 264.359 m f
0.454902 0.862745 0.886275 rg
241.191 253.23 m 211.902 377.703 l 120.594 356.223 l 89.082 348.812 66.816
 320.695 66.816 288.324 c 66.816 69.75 l 194.691 69.75 l h
241.191 253.23 m f
0.45098 0.427451 0.85098 rg
241.191 93 m 241.191 69.75 l 217.941 69.75 l 206.316 81.375 l 206.316 236.137
 l 217.941 247.762 l 241.191 253.23 l 241.191 229.348 l 229.566 200.625 
l 229.566 116.25 l h
241.191 93 m f
0.513726 0.701961 0.945098 rg
241.191 93 m 241.191 229.348 l 217.941 223.875 l 206.316 212.25 l 206.316
 93 l h
241.191 93 m f
0.572549 0.545098 1 rg
194.691 69.75 m 194.691 242.289 l 217.941 247.762 l 217.941 69.75 l h
194.691 69.75 m f
Q Q
showpage
%%Trailer
end
%%EOF
