%!PS-Adobe-3.0 EPSF-3.0
%%Creator: cairo 1.16.0 (https://cairographics.org)
%%CreationDate: Tue Oct 20 13:20:45 2020
%%Pages: 1
%%DocumentData: Clean7Bit
%%LanguageLevel: 2
%%BoundingBox: 87 0 297 384
%%EndComments
%%BeginProlog
50 dict begin
/q { gsave } bind def
/Q { grestore } bind def
/cm { 6 array astore concat } bind def
/w { setlinewidth } bind def
/J { setlinecap } bind def
/j { setlinejoin } bind def
/M { setmiterlimit } bind def
/d { setdash } bind def
/m { moveto } bind def
/l { lineto } bind def
/c { curveto } bind def
/h { closepath } bind def
/re { exch dup neg 3 1 roll 5 3 roll moveto 0 rlineto
      0 exch rlineto 0 rlineto closepath } bind def
/S { stroke } bind def
/f { fill } bind def
/f* { eofill } bind def
/n { newpath } bind def
/W { clip } bind def
/W* { eoclip } bind def
/BT { } bind def
/ET { } bind def
/BDC { mark 3 1 roll /BDC pdfmark } bind def
/EMC { mark /EMC pdfmark } bind def
/cairo_store_point { /cairo_point_y exch def /cairo_point_x exch def } def
/Tj { show currentpoint cairo_store_point } bind def
/TJ {
  {
    dup
    type /stringtype eq
    { show } { -0.001 mul 0 cairo_font_matrix dtransform rmoveto } ifelse
  } forall
  currentpoint cairo_store_point
} bind def
/cairo_selectfont { cairo_font_matrix aload pop pop pop 0 0 6 array astore
    cairo_font exch selectfont cairo_point_x cairo_point_y moveto } bind def
/Tf { pop /cairo_font exch def /cairo_font_matrix where
      { pop cairo_selectfont } if } bind def
/Td { matrix translate cairo_font_matrix matrix concatmatrix dup
      /cairo_font_matrix exch def dup 4 get exch 5 get cairo_store_point
      /cairo_font where { pop cairo_selectfont } if } bind def
/Tm { 2 copy 8 2 roll 6 array astore /cairo_font_matrix exch def
      cairo_store_point /cairo_font where { pop cairo_selectfont } if } bind def
/g { setgray } bind def
/rg { setrgbcolor } bind def
/d1 { setcachedevice } bind def
/cairo_data_source {
  CairoDataIndex CairoData length lt
    { CairoData CairoDataIndex get /CairoDataIndex CairoDataIndex 1 add def }
    { () } ifelse
} def
/cairo_flush_ascii85_file { cairo_ascii85_file status { cairo_ascii85_file flushfile } if } def
/cairo_image { image cairo_flush_ascii85_file } def
/cairo_imagemask { imagemask cairo_flush_ascii85_file } def
%%EndProlog
%%BeginSetup
%%EndSetup
%%Page: 1 1
%%BeginPageSetup
%%PageBoundingBox: 87 0 297 384
%%EndPageSetup
q 87 0 210 384 rectclip
1 0 0 -1 0 384 cm q
0.882353 0.882353 0.890196 rg
180.41 291.285 m 180.41 378.207 l 180.41 381.406 183.004 384 186.207 384
 c 197.793 384 l 200.996 384 203.59 381.406 203.59 378.207 c 203.59 291.285
 l h
180.41 291.285 m f
0.627451 0.635294 0.65098 rg
192 256.516 m 203.59 314.461 l 226.77 314.461 l 239.57 314.461 249.949 
304.086 249.949 291.285 c h
192 256.516 m f
0.760784 0.768627 0.776471 rg
226.77 291.285 m 192 256.516 l 134.051 291.285 l 134.051 304.086 144.43
 314.461 157.23 314.461 c 203.59 314.461 l 216.391 314.461 226.77 304.086
 226.77 291.285 c h
226.77 291.285 m f
0.627451 0.635294 0.65098 rg
273.125 0 m 249.949 0 l 192 268.105 l 261.539 233.336 l 289.547 186.652
 l 293.969 179.281 296.305 170.848 296.305 162.254 c 296.305 162.254 261.539
 92.715 261.539 92.715 c 296.305 34.77 l 296.305 23.18 l 296.305 10.379 
285.93 0 273.125 0 c h
273.125 0 m f
0.760784 0.768627 0.776471 rg
273.125 162.254 m 273.125 23.18 l 273.125 10.379 262.75 0 249.949 0 c 110.875
 0 l 98.07 0 87.695 10.379 87.695 23.18 c 87.695 34.77 l 122.461 92.715 
l 87.695 162.254 l 87.695 170.848 90.031 179.281 94.453 186.652 c 122.461
 233.336 l 192 268.105 l 238.359 233.336 l 266.371 186.652 l 270.793 179.281
 273.125 170.848 273.125 162.254 c h
273.125 162.254 m f
0.513726 0.701961 0.945098 rg
296.305 69.539 m 226.77 115.895 l 273.125 34.523 l 296.305 34.523 l h
296.305 69.539 m f
0.596078 0.827451 0.952941 rg
273.125 115.895 m 87.695 69.539 l 87.695 34.77 l 273.125 34.77 l h
273.125 115.895 m f
0.996078 0.968627 0.490196 rg
296.305 162.254 m 273.125 162.254 l 192 115.895 l 273.125 69.293 l 296.305
 69.293 l h
296.305 162.254 m f
1 g
87.695 69.539 185.43 92.715 re f
0.760784 0.768627 0.776471 rg
261.539 233.336 m 238.359 233.336 l 261.539 291.285 l 278.922 291.285 l
 282.121 291.285 284.715 288.688 284.715 285.488 c 284.715 256.516 l 284.715
 243.715 274.34 233.336 261.539 233.336 c h
261.539 233.336 m f
0.882353 0.882353 0.890196 rg
238.359 233.336 m 122.461 233.336 l 109.66 233.336 99.285 243.715 99.285
 256.516 c 99.285 285.488 l 99.285 288.688 101.879 291.285 105.078 291.285
 c 261.539 291.285 l 261.539 256.516 l 261.539 243.715 251.16 233.336 238.359
 233.336 c h
238.359 233.336 m f
0.254902 0.282353 0.317647 rg
192 98.512 m 110.875 98.512 l 107.672 98.512 105.078 95.918 105.078 92.715
 c 105.078 89.516 107.672 86.922 110.875 86.922 c 192 86.922 l 195.199 86.922
 197.793 89.516 197.793 92.715 c 197.793 95.918 195.199 98.512 192 98.512
 c h
192 98.512 m f
192 121.691 m 110.875 121.691 l 107.672 121.691 105.078 119.098 105.078
 115.895 c 105.078 112.695 107.672 110.102 110.875 110.102 c 192 110.102
 l 195.199 110.102 197.793 112.695 197.793 115.895 c 197.793 119.098 195.199
 121.691 192 121.691 c h
192 121.691 m f
192 144.871 m 110.875 144.871 l 107.672 144.871 105.078 142.277 105.078
 139.074 c 105.078 135.875 107.672 133.281 110.875 133.281 c 192 133.281
 l 195.199 133.281 197.793 135.875 197.793 139.074 c 197.793 142.277 195.199
 144.871 192 144.871 c h
192 144.871 m f
Q Q
showpage
%%Trailer
end
%%EOF
