%!PS-Adobe-3.0 EPSF-3.0
%%Creator: cairo 1.16.0 (https://cairographics.org)
%%CreationDate: Tue Oct 20 13:20:46 2020
%%Pages: 1
%%DocumentData: Clean7Bit
%%LanguageLevel: 2
%%BoundingBox: 99 0 285 384
%%EndComments
%%BeginProlog
50 dict begin
/q { gsave } bind def
/Q { grestore } bind def
/cm { 6 array astore concat } bind def
/w { setlinewidth } bind def
/J { setlinecap } bind def
/j { setlinejoin } bind def
/M { setmiterlimit } bind def
/d { setdash } bind def
/m { moveto } bind def
/l { lineto } bind def
/c { curveto } bind def
/h { closepath } bind def
/re { exch dup neg 3 1 roll 5 3 roll moveto 0 rlineto
      0 exch rlineto 0 rlineto closepath } bind def
/S { stroke } bind def
/f { fill } bind def
/f* { eofill } bind def
/n { newpath } bind def
/W { clip } bind def
/W* { eoclip } bind def
/BT { } bind def
/ET { } bind def
/BDC { mark 3 1 roll /BDC pdfmark } bind def
/EMC { mark /EMC pdfmark } bind def
/cairo_store_point { /cairo_point_y exch def /cairo_point_x exch def } def
/Tj { show currentpoint cairo_store_point } bind def
/TJ {
  {
    dup
    type /stringtype eq
    { show } { -0.001 mul 0 cairo_font_matrix dtransform rmoveto } ifelse
  } forall
  currentpoint cairo_store_point
} bind def
/cairo_selectfont { cairo_font_matrix aload pop pop pop 0 0 6 array astore
    cairo_font exch selectfont cairo_point_x cairo_point_y moveto } bind def
/Tf { pop /cairo_font exch def /cairo_font_matrix where
      { pop cairo_selectfont } if } bind def
/Td { matrix translate cairo_font_matrix matrix concatmatrix dup
      /cairo_font_matrix exch def dup 4 get exch 5 get cairo_store_point
      /cairo_font where { pop cairo_selectfont } if } bind def
/Tm { 2 copy 8 2 roll 6 array astore /cairo_font_matrix exch def
      cairo_store_point /cairo_font where { pop cairo_selectfont } if } bind def
/g { setgray } bind def
/rg { setrgbcolor } bind def
/d1 { setcachedevice } bind def
/cairo_data_source {
  CairoDataIndex CairoData length lt
    { CairoData CairoDataIndex get /CairoDataIndex CairoDataIndex 1 add def }
    { () } ifelse
} def
/cairo_flush_ascii85_file { cairo_ascii85_file status { cairo_ascii85_file flushfile } if } def
/cairo_image { image cairo_flush_ascii85_file } def
/cairo_imagemask { imagemask cairo_flush_ascii85_file } def
%%EndProlog
%%BeginSetup
%%EndSetup
%%Page: 1 1
%%BeginPageSetup
%%PageBoundingBox: 99 0 285 384
%%EndPageSetup
q 99 0 186 384 rectclip
1 0 0 -1 0 384 cm q
0.596078 0.827451 0.952941 rg
261.539 0 m 192 120.785 l 238.359 97.605 l 269.148 51.426 l 278.16 37.91
 283.438 22.293 284.512 6.152 c 284.734 2.82 282.062 0 278.723 0 c h
261.539 0 m f
0.678431 0.94902 0.960784 rg
105.277 0 m 261.539 0 l 261.539 18.305 256.121 36.199 245.969 51.426 c 
215.18 97.605 l 192 120.785 l 145.641 97.605 l 114.852 51.426 l 105.84 37.91
 100.562 22.293 99.488 6.152 c 99.266 2.82 101.938 0 105.277 0 c h
105.277 0 m f
1 0.227451 0.2 rg
203.59 109.195 34.77 57.949 re f
0.996078 0.368627 0.286275 rg
180.41 109.195 34.77 57.949 re f
0.996078 0.521569 0.4 rg
157.23 109.195 34.77 57.949 re f
0.996078 0.368627 0.286275 rg
145.641 109.195 23.18 57.949 re f
0.996078 0.521569 0.4 rg
215.18 74.43 m 215.18 109.195 l 168.82 109.195 l 192 74.43 l h
215.18 74.43 m f
1 0.678431 0.517647 rg
168.82 74.43 23.18 34.766 re f
0.709804 0.219608 0.25098 rg
238.359 97.605 m 215.18 97.605 l 215.18 120.785 l 238.359 120.785 l 244.754
 120.785 249.949 115.602 249.949 109.195 c 249.949 102.801 244.754 97.605
 238.359 97.605 c h
238.359 97.605 m f
1 0.227451 0.2 rg
226.77 109.195 m 226.77 102.801 221.578 97.605 215.18 97.605 c 145.641 
97.605 l 139.246 97.605 134.051 102.801 134.051 109.195 c 134.051 115.602
 139.246 120.785 145.641 120.785 c 215.18 120.785 l 221.578 120.785 226.77
 115.602 226.77 109.195 c h
226.77 109.195 m f
0.678431 0.94902 0.960784 rg
269.148 201.734 m 238.359 155.555 l 215.18 155.555 l 215.18 372.41 l 284.715
 349.23 l 284.715 253.168 l 284.715 234.867 279.301 216.965 269.148 201.734
 c h
269.148 201.734 m f
0.839216 0.976471 0.980392 rg
245.969 201.734 m 215.18 155.555 l 145.641 155.555 l 114.852 201.734 l 
104.699 216.965 99.285 234.867 99.285 253.168 c 99.285 349.23 l 261.539 
372.41 l 261.539 253.168 l 261.539 234.867 256.121 216.965 245.969 201.734
 c h
245.969 201.734 m f
0.996078 0.521569 0.4 rg
249.949 326.051 m 226.77 326.051 l 226.77 360.82 l 261.539 360.82 l 261.539
 349.23 l h
249.949 326.051 m f
1 0.678431 0.517647 rg
226.77 326.051 m 134.051 326.051 l 122.461 349.23 l 122.461 360.82 l 238.359
 360.82 l 238.359 349.23 l h
226.77 326.051 m f
0.709804 0.219608 0.25098 rg
284.715 349.23 m 284.715 378.207 l 284.715 381.406 282.121 384 278.922 
384 c 261.539 384 l 238.359 366.617 l 261.539 349.23 l h
284.715 349.23 m f
1 0.227451 0.2 rg
99.285 349.23 m 99.285 378.207 l 99.285 381.406 101.879 384 105.078 384
 c 261.539 384 l 261.539 349.23 l h
99.285 349.23 m f
Q Q
showpage
%%Trailer
end
%%EOF
