%!PS-Adobe-3.0 EPSF-3.0
%%Creator: cairo 1.16.0 (https://cairographics.org)
%%CreationDate: Tue Oct 20 13:20:48 2020
%%Pages: 1
%%DocumentData: Clean7Bit
%%LanguageLevel: 2
%%BoundingBox: 87 0 297 384
%%EndComments
%%BeginProlog
50 dict begin
/q { gsave } bind def
/Q { grestore } bind def
/cm { 6 array astore concat } bind def
/w { setlinewidth } bind def
/J { setlinecap } bind def
/j { setlinejoin } bind def
/M { setmiterlimit } bind def
/d { setdash } bind def
/m { moveto } bind def
/l { lineto } bind def
/c { curveto } bind def
/h { closepath } bind def
/re { exch dup neg 3 1 roll 5 3 roll moveto 0 rlineto
      0 exch rlineto 0 rlineto closepath } bind def
/S { stroke } bind def
/f { fill } bind def
/f* { eofill } bind def
/n { newpath } bind def
/W { clip } bind def
/W* { eoclip } bind def
/BT { } bind def
/ET { } bind def
/BDC { mark 3 1 roll /BDC pdfmark } bind def
/EMC { mark /EMC pdfmark } bind def
/cairo_store_point { /cairo_point_y exch def /cairo_point_x exch def } def
/Tj { show currentpoint cairo_store_point } bind def
/TJ {
  {
    dup
    type /stringtype eq
    { show } { -0.001 mul 0 cairo_font_matrix dtransform rmoveto } ifelse
  } forall
  currentpoint cairo_store_point
} bind def
/cairo_selectfont { cairo_font_matrix aload pop pop pop 0 0 6 array astore
    cairo_font exch selectfont cairo_point_x cairo_point_y moveto } bind def
/Tf { pop /cairo_font exch def /cairo_font_matrix where
      { pop cairo_selectfont } if } bind def
/Td { matrix translate cairo_font_matrix matrix concatmatrix dup
      /cairo_font_matrix exch def dup 4 get exch 5 get cairo_store_point
      /cairo_font where { pop cairo_selectfont } if } bind def
/Tm { 2 copy 8 2 roll 6 array astore /cairo_font_matrix exch def
      cairo_store_point /cairo_font where { pop cairo_selectfont } if } bind def
/g { setgray } bind def
/rg { setrgbcolor } bind def
/d1 { setcachedevice } bind def
/cairo_data_source {
  CairoDataIndex CairoData length lt
    { CairoData CairoDataIndex get /CairoDataIndex CairoDataIndex 1 add def }
    { () } ifelse
} def
/cairo_flush_ascii85_file { cairo_ascii85_file status { cairo_ascii85_file flushfile } if } def
/cairo_image { image cairo_flush_ascii85_file } def
/cairo_imagemask { imagemask cairo_flush_ascii85_file } def
%%EndProlog
%%BeginSetup
%%EndSetup
%%Page: 1 1
%%BeginPageSetup
%%PageBoundingBox: 87 0 297 384
%%EndPageSetup
q 87 0 210 384 rectclip
1 0 0 -1 0 384 cm q
0.596078 0.827451 0.952941 rg
243.387 0 m 222.703 0 l 222.703 150.664 l 284.715 104.305 l 284.715 96.379
 l 284.715 59.859 270.629 26.629 247.602 1.816 c 246.516 0.648 244.98 0 
243.387 0 c h
243.387 0 m f
0.678431 0.94902 0.960784 rg
222.703 0 m 140.613 0 l 139.02 0 137.484 0.648 136.398 1.816 c 113.371 
26.629 99.285 59.859 99.285 96.379 c 99.285 104.305 l 192 162.254 l 261.539
 104.305 l 261.539 96.379 l 261.539 58.961 246.75 24.996 222.703 0 c h
222.703 0 m f
284.715 104.305 m 284.715 256.516 l 192 256.516 l 261.539 104.305 l h
284.715 104.305 m f
0.839216 0.976471 0.980392 rg
261.539 104.305 m 261.539 256.516 l 99.285 256.516 l 99.285 104.305 l 145.641
 104.305 l 192 115.895 l 238.359 104.305 l h
261.539 104.305 m f
0.513726 0.701961 0.945098 rg
215.18 104.305 m 192 127.484 l 215.18 127.484 l 227.98 127.484 238.359 
117.109 238.359 104.305 c h
215.18 104.305 m f
0.596078 0.827451 0.952941 rg
215.18 104.305 m 145.641 104.305 l 145.641 117.109 156.02 127.484 168.82
 127.484 c 192 127.484 l 204.801 127.484 215.18 117.109 215.18 104.305 c
 h
215.18 104.305 m f
0.678431 0.94902 0.960784 rg
192 256.516 92.715 57.945 re f
0.839216 0.976471 0.980392 rg
99.285 256.516 162.254 57.945 re f
0.513726 0.701961 0.945098 rg
180.41 256.516 46.359 57.945 re f
0.596078 0.827451 0.952941 rg
157.23 256.516 46.359 57.945 re f
0.333333 0.309804 0.698039 rg
296.305 326.051 m 249.949 360.82 l 273.125 302.875 l 290.512 302.875 l 
293.711 302.875 296.305 305.469 296.305 308.668 c h
296.305 326.051 m f
0.45098 0.427451 0.85098 rg
273.125 349.23 m 110.875 349.23 l 87.695 326.051 l 87.695 308.668 l 87.695
 305.469 90.289 302.875 93.488 302.875 c 273.125 302.875 l h
273.125 349.23 m f
0.596078 0.827451 0.952941 rg
284.715 244.926 m 261.539 244.926 l 261.539 268.105 l 284.715 268.105 l
 291.113 268.105 296.305 262.914 296.305 256.516 c 296.305 250.117 291.113
 244.926 284.715 244.926 c h
284.715 244.926 m f
0.678431 0.94902 0.960784 rg
261.539 244.926 m 267.934 244.926 273.125 250.117 273.125 256.516 c 273.125
 262.914 267.934 268.105 261.539 268.105 c 99.285 268.105 l 92.887 268.105
 87.695 262.914 87.695 256.516 c 87.695 250.117 92.887 244.926 99.285 244.926
 c h
261.539 244.926 m f
0.45098 0.427451 0.85098 rg
296.305 326.051 m 296.305 378.207 l 296.305 381.406 293.711 384 290.512
 384 c 273.125 384 l 249.949 355.027 l 273.125 326.051 l h
296.305 326.051 m f
0.572549 0.545098 1 rg
273.125 326.051 m 273.125 384 l 249.949 384 l 226.77 355.027 l 249.949 
326.051 l h
273.125 326.051 m f
0.513726 0.701961 0.945098 rg
249.949 326.051 m 249.949 384 l 226.77 384 l 203.59 355.027 l 226.77 326.051
 l h
249.949 326.051 m f
0.572549 0.545098 1 rg
226.77 326.051 m 226.77 384 l 203.59 384 l 180.41 355.027 l 203.59 326.051
 l h
226.77 326.051 m f
0.513726 0.701961 0.945098 rg
203.59 326.051 m 203.59 384 l 180.41 384 l 157.23 355.027 l 180.41 326.051
 l h
203.59 326.051 m f
0.572549 0.545098 1 rg
180.41 326.051 m 180.41 384 l 157.23 384 l 134.051 355.027 l 157.23 326.051
 l h
180.41 326.051 m f
0.513726 0.701961 0.945098 rg
157.23 326.051 m 157.23 384 l 134.051 384 l 110.875 355.027 l 134.051 326.051
 l h
157.23 326.051 m f
0.572549 0.545098 1 rg
134.051 326.051 m 134.051 384 l 110.875 384 l 99.285 355.027 l 110.875 
326.051 l h
134.051 326.051 m f
0.513726 0.701961 0.945098 rg
110.875 326.051 m 110.875 384 l 93.488 384 l 90.289 384 87.695 381.406 
87.695 378.207 c 87.695 326.051 l h
110.875 326.051 m f
Q Q
showpage
%%Trailer
end
%%EOF
