%!PS-Adobe-3.0 EPSF-3.0
%%Creator: cairo 1.16.0 (https://cairographics.org)
%%CreationDate: Tue Oct 20 13:20:48 2020
%%Pages: 1
%%DocumentData: Clean7Bit
%%LanguageLevel: 2
%%BoundingBox: 81 0 303 384
%%EndComments
%%BeginProlog
50 dict begin
/q { gsave } bind def
/Q { grestore } bind def
/cm { 6 array astore concat } bind def
/w { setlinewidth } bind def
/J { setlinecap } bind def
/j { setlinejoin } bind def
/M { setmiterlimit } bind def
/d { setdash } bind def
/m { moveto } bind def
/l { lineto } bind def
/c { curveto } bind def
/h { closepath } bind def
/re { exch dup neg 3 1 roll 5 3 roll moveto 0 rlineto
      0 exch rlineto 0 rlineto closepath } bind def
/S { stroke } bind def
/f { fill } bind def
/f* { eofill } bind def
/n { newpath } bind def
/W { clip } bind def
/W* { eoclip } bind def
/BT { } bind def
/ET { } bind def
/BDC { mark 3 1 roll /BDC pdfmark } bind def
/EMC { mark /EMC pdfmark } bind def
/cairo_store_point { /cairo_point_y exch def /cairo_point_x exch def } def
/Tj { show currentpoint cairo_store_point } bind def
/TJ {
  {
    dup
    type /stringtype eq
    { show } { -0.001 mul 0 cairo_font_matrix dtransform rmoveto } ifelse
  } forall
  currentpoint cairo_store_point
} bind def
/cairo_selectfont { cairo_font_matrix aload pop pop pop 0 0 6 array astore
    cairo_font exch selectfont cairo_point_x cairo_point_y moveto } bind def
/Tf { pop /cairo_font exch def /cairo_font_matrix where
      { pop cairo_selectfont } if } bind def
/Td { matrix translate cairo_font_matrix matrix concatmatrix dup
      /cairo_font_matrix exch def dup 4 get exch 5 get cairo_store_point
      /cairo_font where { pop cairo_selectfont } if } bind def
/Tm { 2 copy 8 2 roll 6 array astore /cairo_font_matrix exch def
      cairo_store_point /cairo_font where { pop cairo_selectfont } if } bind def
/g { setgray } bind def
/rg { setrgbcolor } bind def
/d1 { setcachedevice } bind def
/cairo_data_source {
  CairoDataIndex CairoData length lt
    { CairoData CairoDataIndex get /CairoDataIndex CairoDataIndex 1 add def }
    { () } ifelse
} def
/cairo_flush_ascii85_file { cairo_ascii85_file status { cairo_ascii85_file flushfile } if } def
/cairo_image { image cairo_flush_ascii85_file } def
/cairo_imagemask { imagemask cairo_flush_ascii85_file } def
%%EndProlog
%%BeginSetup
%%EndSetup
%%Page: 1 1
%%BeginPageSetup
%%PageBoundingBox: 81 0 303 384
%%EndPageSetup
q 81 0 222 384 rectclip
1 0 0 -1 0 384 cm q
0.227451 0.780392 0.811765 rg
168.82 92.715 69.539 46.359 re f
145.641 92.715 69.539 46.359 re f
290.512 231.789 m 297.93 224.371 302.102 214.305 302.102 203.812 c 302.102
 192.105 297.164 180.945 288.5 173.07 c 238.359 127.484 l 215.18 127.484
 l 255.742 384 l 278.922 384 l 291.723 384 302.102 373.621 302.102 360.82
 c 302.102 342.441 l 302.102 331.949 297.93 321.883 290.512 314.461 c h
290.512 231.789 m f
0.454902 0.862745 0.886275 rg
274.121 330.852 m 267.332 324.062 l 267.121 231.789 l 271.215 224.371 273.516
 214.305 273.516 203.812 c 273.516 192.105 270.789 180.945 266.016 173.07
 c 238.359 127.484 l 145.641 127.484 l 95.5 173.07 l 86.836 180.945 81.898
 192.105 81.898 203.812 c 81.898 214.305 86.07 224.371 93.488 231.789 c 
93.488 314.461 l 86.07 321.883 81.898 331.949 81.898 342.441 c 81.898 360.82
 l 81.898 373.621 92.277 384 105.078 384 c 255.742 384 l 268.543 384 278.922
 373.621 278.922 360.82 c 278.922 342.441 l 278.922 338.066 277.219 333.949
 274.121 330.852 c h
274.121 330.852 m f
0.168627 0.266667 0.470588 rg
221.742 0 m 203.59 0 l 192 104.305 l 238.359 81.125 l 227.48 4.977 l 227.07
 2.121 224.625 0 221.742 0 c h
221.742 0 m f
0.333333 0.309804 0.698039 rg
156.52 4.977 m 145.641 81.125 l 192 104.305 l 215.18 81.125 l 203.59 0 
l 162.258 0 l 159.375 0 156.93 2.121 156.52 4.977 c h
156.52 4.977 m f
0.227451 0.780392 0.811765 rg
238.359 81.125 m 215.18 81.125 l 215.18 104.305 l 238.359 104.305 l 244.758
 104.305 249.949 99.117 249.949 92.715 c 249.949 86.316 244.758 81.125 238.359
 81.125 c h
238.359 81.125 m f
0.454902 0.862745 0.886275 rg
226.77 92.715 m 226.77 86.316 221.578 81.125 215.18 81.125 c 145.641 81.125
 l 139.242 81.125 134.051 86.316 134.051 92.715 c 134.051 99.117 139.242
 104.305 145.641 104.305 c 215.18 104.305 l 221.578 104.305 226.77 99.117
 226.77 92.715 c h
226.77 92.715 m f
0.168627 0.266667 0.470588 rg
267.121 266.559 m 220.766 289.738 l 243.941 231.789 l 267.121 231.789 l
 h
267.121 266.559 m f
0.333333 0.309804 0.698039 rg
243.941 312.918 m 116.457 266.559 l 116.457 231.789 l 243.941 231.789 l
 h
243.941 312.918 m f
0.996078 0.968627 0.490196 rg
267.332 266.559 m 267.332 323.734 l 244.152 323.734 l 197.793 295.148 l
 244.152 266.559 l h
267.332 266.559 m f
1 g
116.668 266.559 127.484 57.176 re f
Q Q
showpage
%%Trailer
end
%%EOF
